<?xml version="1.0" encoding="UTF-8" standalone="no"?>
<!-- Generator: Adobe Illustrator 16.0.0, SVG Export Plug-In . SVG Version: 6.00 Build 0)  -->

<svg
   xmlns:dc="http://purl.org/dc/elements/1.1/"
   xmlns:cc="http://creativecommons.org/ns#"
   xmlns:rdf="http://www.w3.org/1999/02/22-rdf-syntax-ns#"
   xmlns:svg="http://www.w3.org/2000/svg"
   xmlns="http://www.w3.org/2000/svg"
   xmlns:xlink="http://www.w3.org/1999/xlink"
   xmlns:sodipodi="http://sodipodi.sourceforge.net/DTD/sodipodi-0.dtd"
   xmlns:inkscape="http://www.inkscape.org/namespaces/inkscape"
   version="1.1"
   id="Layer_1"
   x="0px"
   y="0px"
   width="328px"
   height="212px"
   viewBox="0 0 328 212"
   enable-background="new 0 0 328 212"
   xml:space="preserve"
   inkscape:version="0.91 r13725"
   sodipodi:docname="logoDonestech_final.svg"><metadata
     id="metadata111"><rdf:RDF><cc:Work
         rdf:about=""><dc:format>image/svg+xml</dc:format><dc:type
           rdf:resource="http://purl.org/dc/dcmitype/StillImage" /><dc:title></dc:title></cc:Work></rdf:RDF></metadata><defs
     id="defs109" /><sodipodi:namedview
     pagecolor="#ffffff"
     bordercolor="#666666"
     borderopacity="1"
     objecttolerance="10"
     gridtolerance="10"
     guidetolerance="10"
     inkscape:pageopacity="0"
     inkscape:pageshadow="2"
     inkscape:window-width="640"
     inkscape:window-height="480"
     id="namedview107"
     showgrid="false"
     inkscape:zoom="1.0060976"
     inkscape:cx="164"
     inkscape:cy="106"
     inkscape:window-x="10"
     inkscape:window-y="24"
     inkscape:window-maximized="0"
     inkscape:current-layer="Layer_1" /><g
     id="g3"><g
       id="g5"><g
         id="g7"><defs
           id="defs9"><rect
             id="SVGID_1_"
             x="10"
             y="11.514"
             width="311.285"
             height="194.767" /></defs><clipPath
           id="SVGID_2_"><use
             xlink:href="#SVGID_1_"
             overflow="visible"
             id="use13" /></clipPath><path
           clip-path="url(#SVGID_2_)"
           fill="#ED585C"
           d="M295.223,165.396l-64.4-0.022v1.302l64.4,0.021     c5.582-0.362,10.229-2.331,13.938-5.91c3.711-3.577,5.565-7.898,5.565-12.958v-22.567l0.094-6.76V95.933     c0-5.059-1.854-9.38-5.563-12.958c-3.595-3.467-8.073-5.409-13.426-5.857l-12.255-0.027c-0.148,0.438-0.344,0.868-0.518,1.302     h12.534c5.175,0.338,9.447,2.131,12.812,5.396c3.431,3.326,5.144,7.374,5.144,12.146v22.568l-0.096,6.761v22.566     c0,4.771-1.714,8.818-5.142,12.146C304.887,163.298,300.521,165.105,295.223,165.396 M228.635,124.951h-1.271v80.787h1.271     V124.951z M225.562,124.951h-1.272v80.787h1.272V124.951z M222.699,124.951h-1.271v80.787h1.271V124.951z M219.52,124.951h-1.271     v80.787h1.271V124.951z M216.129,124.951h-1.271v80.787h1.271V124.951z M213.16,124.951h-1.271v80.787h1.271V124.951z      M210.086,124.951h-1.271v80.787h1.271V124.951z M206.801,124.951h-1.271v80.787h1.271V124.951z M143.966,206.256     c-0.153,0.003-0.303,0.023-0.457,0.023h0.457V206.256z M70.884,167.079c-2.368,4.086-3.551,8.403-3.551,12.959     c0,6.219,2.03,11.803,6.095,16.754c4.062,4.952,9.132,7.972,15.21,9.056c1.696,0.289,4.91,0.434,9.645,0.434h5.512h4.239h4.134     h31.341c-0.889,0-1.764-0.069-2.632-0.176c0.868,0.104,1.743,0.176,2.632,0.176c1.651,0,3.271-0.184,4.863-0.543h28.185     c2.756,0,5.651-0.686,8.69-2.061c3.039-1.371,5.618-3.18,7.737-5.422c4.312-4.48,7.045-10.605,7.729-18.343l0.084-4.771     c0.069-1.013,0.389-1.736,0.953-2.17c0.282-0.287,0.812-0.47,1.59-0.541v-1.303c-2.543,0.146-3.812,1.52-3.812,4.121v3.92h-0.006     c-0.211,6.146-2.264,11.387-5.582,15.725c-2.119,2.893-4.771,5.205-7.949,6.939c-3.18,1.732-6.324,2.604-9.434,2.604h-24.25     c1.232-0.527,2.442-1.191,3.637-1.953h20.508c2.756,0,5.67-0.83,8.744-2.494c3.074-1.661,5.6-3.758,7.578-6.288     c2.904-3.8,4.502-8.401,4.824-13.788h0.021v-0.742v-4.354c0-1.59,0.547-2.909,1.644-3.959c1.096-1.047,2.454-1.606,4.079-1.68     v-1.303c-2.049,0.072-3.728,0.76-5.032,2.061c-1.31,1.301-1.961,2.928-1.961,4.881v4.8c-0.281,5.649-1.961,10.315-5.058,13.978     c-1.838,2.168-4.17,3.977-6.996,5.422c-2.828,1.446-5.479,2.168-7.948,2.168h-18.53c0.848-0.636,1.691-1.308,2.52-2.06h15.796     c4.945,0,9.168-1.897,12.666-5.692c3.345-3.629,5.231-8.141,5.705-13.519h0.006l0.003-0.081c0.018-0.223,0.004-0.661,0.004-0.661     l0.028-4.788c0-1.154,0.354-2.402,1.062-3.74c0.705-1.338,1.519-2.332,2.438-2.981c1.625-1.084,3.393-1.661,5.3-1.733v-1.302     c-3.108,0.218-5.548,1.19-7.312,2.929c-1.768,1.733-2.65,4.012-2.65,6.832l-0.074,4.786c-0.283,5.423-2.051,9.888-5.301,13.394     c-3.25,3.508-7.207,5.26-11.871,5.26h-14.403c0.608-0.633,1.173-1.284,1.701-1.952h12.596c2.4,0,4.752-0.632,7.049-1.897     c2.296-1.264,4.115-2.943,5.459-5.041c1.58-2.562,2.488-5.578,2.781-9.019l0.05-0.741v-5.33c0-2.893,1.147-5.404,3.444-7.537     c2.295-2.131,5.141-3.309,8.531-3.523v-1.303c-3.814,0.219-6.979,1.502-9.484,3.851c-2.51,2.353-3.764,5.188-3.764,8.515v5.701     c-0.272,4.312-1.688,7.881-4.263,10.688c-2.649,2.894-5.92,4.338-9.806,4.338h-11.632c0.417-0.604,0.821-1.217,1.187-1.844     h10.658c3.249,0,6.021-1.282,8.318-3.851c2.147-2.399,3.373-5.394,3.697-8.963l0.034-0.741v-5.113     c0-3.976,1.414-7.319,4.24-10.03c2.825-2.711,6.43-4.177,10.812-4.392v-1.303c-3.675,0.217-6.854,1.191-9.539,2.928     c-2.052,1.375-3.691,3.236-4.929,5.586c-1.237,2.351-1.854,4.754-1.854,7.211v5.345c-0.25,3.364-1.379,6.202-3.414,8.498     c-2.086,2.351-4.541,3.524-7.365,3.524h-9.93c0.342-0.676,0.662-1.359,0.94-2.062h8.457c2.757,0,4.981-0.901,6.679-2.711     c1.694-1.808,2.562-4.302,2.772-7.481l-0.05-5.223c0-4.771,1.714-8.818,5.142-12.146c3.427-3.324,7.791-5.131,13.091-5.422     v-1.301c-5.582,0.361-10.229,2.33-13.938,5.909c-3.711,3.577-5.562,7.899-5.562,12.958l0.018,5.564     c-0.114,1.818-0.58,3.516-1.577,5.08c-0.636,0.938-1.608,1.77-2.914,2.492c-1.31,0.725-2.528,1.084-3.657,1.084h-8.021     c0.207-0.604,0.396-1.219,0.562-1.844h6.771c1.908,0,3.498-0.668,4.771-2.008c1.168-1.229,1.805-2.795,1.959-4.666l0.075-5.922     c0-2.529,0.706-5.24,2.12-8.133c1.412-2.892,3.18-5.276,5.301-7.158c3.672-3.252,8.373-4.986,14.096-5.205v-1.301     c-5.582,0.217-10.316,1.881-14.201,4.988c-2.475,2.023-4.522,4.607-6.147,7.754c-1.626,3.146-2.438,6.127-2.438,8.945     l-0.021,5.547c-0.069,1.664-0.619,3.055-1.643,4.176c-1.025,1.121-2.315,1.68-3.869,1.68h-6.471     c0.133-0.639,0.233-1.293,0.32-1.95h5.725c2.375,0,3.688-1.147,3.973-3.421l0.078-6.139c0-3.182,0.85-6.397,2.545-9.65     c1.693-3.256,3.955-5.965,6.783-8.135c4.238-3.396,9.361-5.205,15.367-5.422v-1.301c-7.914,0.579-14.133,3.145-18.654,7.699     c-2.189,2.168-3.957,4.809-5.299,7.916c-1.344,3.107-2.014,6.07-2.014,8.893l-0.021,5.654c-0.071,0.797-0.25,1.34-0.529,1.627     c-0.424,0.579-1.131,0.903-2.119,0.977h-5.66c0.078-0.887,0.117-1.791,0.117-2.711v-1.953v-1.518v-1.41v-0.976h-1.271v0.976v1.41     v1.518v1.953c0,7.156-2.369,13.158-7.103,18c-5.3,5.277-11.06,7.916-17.277,7.916c-5.018,0-9.823-1.771-14.415-5.312     c-4.594-3.541-7.631-7.844-9.115-12.903c-0.567-1.807-0.885-3.271-0.954-4.394c-0.072-1.119-0.107-4.21-0.107-9.271v-8.351     v-8.241c0-6,0.141-9.724,0.424-11.17c0.849-4.48,2.968-8.421,6.36-11.818c5.369-5.492,11.305-8.242,17.807-8.242     c6.217,0,11.941,2.604,17.171,7.81c2.613,2.603,4.468,5.259,5.565,7.97c1.095,2.711,1.644,5.947,1.644,9.705v2.494v1.952v1.951     v1.192h1.271v-1.192v-1.951v-1.952v-2.494c0-2.891-0.178-5.022-0.529-6.397c-1.133-4.479-3.498-8.527-7.103-12.146     c-5.371-5.492-11.378-8.24-18.019-8.24c-2.175,0-4.321,0.338-6.441,0.977h-29.034h-4.239h-5.512     c-4.663,0-7.597,0.055-8.797,0.163c-0.209,0.021-0.442,0.058-0.672,0.092c0.175-0.024,0.385-0.077,0.547-0.092     c0.874-0.079,5.388-0.435,5.388-0.435H70.936h-8.939h-5.405H51.08h-5.406h-3.497l3.179,1.301h3.074h4.876h4.876h4.769h8.409     h14.184c1.056-0.334,1.951-0.543,2.768-0.689c-0.992,0.188-2.148,0.506-3.489,0.962c-3.604,1.156-6.784,3.056-9.539,5.691     c-2.756,2.642-4.841,5.729-6.254,9.272c-0.779,2.096-1.255,3.887-1.431,5.366c-0.177,1.481-0.265,4.501-0.265,9.056v5.097v3.796     v3.902v2.386l1.272-3.035v-2.062v-3.252v-3.254v-4.338c0-3.758,0.069-6.252,0.212-7.482c0.141-1.229,0.493-2.711,1.06-4.444     c1.129-3.396,2.931-6.415,5.406-9.056c2.472-2.639,5.405-4.645,8.797-6.019c2.685-1.085,6.466-1.627,11.341-1.627h4.134h4.24     h4.239h25.625c-0.994,0.468-1.981,1.015-2.963,1.627h-22.662h-4.239h-5.512c-4.382,0-7.138,0.054-8.267,0.162     c-1.131,0.108-2.544,0.452-4.24,1.03c-3.18,1.014-6.007,2.693-8.479,5.042c-2.475,2.351-4.277,5.079-5.406,8.188     c-0.991,2.674-1.484,6.471-1.484,11.385v3.471v2.604v2.604v1.627l1.272-1.732v-1.41v-2.277V156.3v-3.036     c0-4.121,0.353-7.267,1.06-9.436c0.917-2.963,2.472-5.602,4.663-7.916c2.19-2.312,4.77-4.083,7.738-5.312     c2.473-0.938,5.899-1.41,10.281-1.41h4.134h4.24h4.239h20.729c-0.154,0.112-0.31,0.211-0.464,0.326     c-0.655,0.491-1.267,1-1.86,1.519h-18.405h-4.239h-5.512c-4.099,0-6.643,0.036-7.631,0.108c-0.991,0.072-2.191,0.36-3.604,0.866     c-2.827,0.94-5.336,2.438-7.526,4.501c-2.191,2.061-3.815,4.465-4.875,7.211c-0.779,2.098-1.166,5.135-1.166,9.108v2.386v1.951     v1.846v1.19l1.272-1.302v-0.977v-1.626v-1.733v-2.062v-1.734c0-6.938,2.968-12.215,8.903-15.832     c1.766-1.084,3.392-1.789,4.876-2.113c1.484-0.325,3.779-0.487,6.889-0.487h4.134h4.24h4.239h17.006     c-0.675,0.67-1.317,1.354-1.9,2.062H107.93h-4.134c-7.067,0-11.307,0.055-12.719,0.164c-1.415,0.105-2.827,0.451-4.24,1.027     c-3.251,1.303-5.813,3.326-7.685,6.071c-1.873,2.75-2.809,5.821-2.809,9.219v1.409v1.734v1.41v1.301v0.867l1.272-0.977v-0.76     v-1.084v-1.192v-1.519v-1.192c0-5.71,2.473-10.048,7.42-13.013c1.765-1.012,3.267-1.627,4.505-1.844     c1.235-0.217,4.115-0.326,8.638-0.326h5.618h4.134h14.209c-0.46,0.639-0.896,1.285-1.284,1.953h-12.82h-4.239     c-8.339,0-13.109,0.146-14.309,0.434c-2.899,0.725-5.283,2.277-7.155,4.662c-1.873,2.386-2.809,5.025-2.809,7.916v1.193v1.19     v0.867v0.978v0.543l1.272-0.65v-0.543v-0.758v-0.76v-1.085v-0.76c0-2.312,0.636-4.444,1.908-6.396     c1.272-1.953,3.003-3.436,5.194-4.447c1.201-0.504,2.242-0.812,3.127-0.922c0.882-0.107,3.302-0.162,7.26-0.162h5.512h4.239     h12.129c-0.301,0.604-0.583,1.217-0.827,1.844h-11.302h-4.239c-7.986,0-12.507,0.146-13.567,0.436     c-2.191,0.578-3.993,1.752-5.406,3.522c-1.414,1.772-2.12,3.705-2.12,5.802v0.76v0.867v0.65v0.542v0.435l1.272-0.435v-0.326     v-0.542v-0.542v-0.759v-0.543c0-3.469,1.731-6,5.194-7.59c0.988-0.506,1.855-0.795,2.597-0.867     c0.742-0.072,2.914-0.108,6.518-0.108h5.512h4.239h10.858c-0.059,0.183-0.132,0.358-0.185,0.542     c-0.131,0.497-0.246,0.965-0.35,1.409h-10.323h-4.239c-7.703,0-11.871,0.073-12.507,0.218c-1.627,0.434-2.968,1.283-4.028,2.549     c-1.06,1.267-1.59,2.621-1.59,4.065v0.435v0.435v0.435v0.436v0.217l1.272-0.217v-0.217v-0.326v-0.434v-0.437v-0.324     c0-2.097,1.166-3.758,3.498-4.985c0.848-0.361,3.461-0.545,7.843-0.545h5.512h4.239h10.048c-0.132,0.688-0.227,1.311-0.276,1.846     c-0.006,0.06-0.011,0.146-0.016,0.217h-9.756h-4.239c-7.632,0-11.731,0.072-12.295,0.217c-1.696,0.361-2.544,1.374-2.544,3.035     v0.436v0.434v0.435v0.325v0.217h1.272v-0.217v-0.325v-0.323v-0.326v-0.435c0-0.938,0.493-1.59,1.484-1.95     c0.352-0.146,1.589-0.219,3.709-0.219h4.134h4.24h4.239h9.693c-0.053,1.625-0.08,4.217-0.08,7.811v8.24v8.35     c0,4.418,0.092,7.658,0.275,9.76h-5.754h-4.134h-4.239c-7.491,0-11.341-0.036-11.554-0.107c-1.202-0.218-1.801-1.013-1.801-2.387     c0-1.084,0.387-1.844,1.166-2.275c0.424-0.289,2.154-0.436,5.193-0.436h3.922h3.074h2.968h1.907v-1.301h-1.907h-2.968h-3.074     c-5.724,0-8.834,0.107-9.327,0.324c-1.484,0.58-2.226,1.809-2.226,3.688c0,1.734,0.705,2.893,2.12,3.471     c0.424,0.217,2.755,0.324,6.995,0.324h5.512h4.239h4.134h5.897c0.035,0.242,0.072,0.467,0.112,0.65     c0.082,0.439,0.189,0.871,0.295,1.302h-6.304h-4.134h-4.239c-6.148,0-9.788-0.035-10.918-0.106     c-1.131-0.072-2.05-0.289-2.755-0.651c-1.839-1.011-2.756-2.712-2.756-5.097c0-2.24,0.917-3.903,2.756-4.987     c0.564-0.361,1.129-0.578,1.696-0.65c0.564-0.069,2.225-0.106,4.981-0.106h3.922h3.074h2.968h1.907v-1.303h-1.907h-2.968h-3.074     h-3.604c-3.039,0-4.876,0.037-5.511,0.106c-0.636,0.073-1.344,0.325-2.12,0.761c-2.263,1.446-3.392,3.508-3.392,6.184     c0,2.312,0.848,4.229,2.544,5.746c0.848,0.723,1.696,1.139,2.544,1.246c0.848,0.106,3.214,0.162,7.101,0.162h5.512h4.239h4.134     h6.665c0.278,0.907,0.619,1.791,1.003,2.655c-0.119-0.271-0.242-0.538-0.352-0.812h-7.316h-4.134h-4.239     c-6.502,0-10.388-0.055-11.66-0.162c-1.271-0.108-2.403-0.416-3.391-0.922c-1.343-0.724-2.438-1.846-3.286-3.361     c-0.848-1.518-1.272-3.072-1.272-4.664c0-3.323,1.447-5.891,4.346-7.698c1.413-0.868,3.461-1.302,6.147-1.302h3.074h2.968h3.074     h2.968h1.907v-1.301h-1.907h-2.968h-3.074h-3.604c-3.322,0-5.389,0.055-6.2,0.162c-0.814,0.107-1.786,0.523-2.915,1.248     c-3.392,2.168-5.088,5.133-5.088,8.891c0,2.459,0.759,4.646,2.279,6.562c1.519,1.916,3.408,3.09,5.671,3.522     c0.848,0.217,3.32,0.323,7.419,0.323h5.512h4.239h4.134h7.881c-0.036-0.075-0.065-0.152-0.1-0.229     c0.309,0.674,0.651,1.334,1.024,1.979c-0.002-0.004-0.006-0.01-0.009-0.014h-8.796h-4.134h-4.239     c-6.572,0-10.477-0.035-11.712-0.108c-1.238-0.07-2.351-0.287-3.339-0.65c-2.262-0.938-4.117-2.456-5.565-4.555     c-1.449-2.097-2.173-4.373-2.173-6.832c0-2.097,0.547-4.103,1.643-6.019c1.095-1.914,2.561-3.416,4.399-4.5     c1.272-0.795,2.385-1.265,3.339-1.41c0.954-0.145,3.09-0.217,6.412-0.217h3.922h3.074h2.968h1.907v-1.31h-1.907h-2.968h-3.074     H96.8c-3.463,0-5.707,0.092-6.73,0.271c-1.026,0.183-2.244,0.67-3.657,1.465c-1.979,1.156-3.587,2.818-4.823,4.988     c-1.237,2.168-1.855,4.409-1.855,6.723c0,2.314,0.618,4.556,1.855,6.724c1.236,2.169,2.879,3.833,4.929,4.988     c1.341,0.797,2.507,1.284,3.498,1.463c0.988,0.185,2.79,0.271,5.405,0.271h4.134h4.24h4.239h4.134h9.6     c-0.266-0.397-0.512-0.807-0.751-1.215c0.663,1.139,1.442,2.23,2.31,3.287c-0.033-0.04-0.071-0.078-0.104-0.119h-11.055h-4.134     h-4.239c-7.42,0-11.89-0.09-13.408-0.271c-1.521-0.18-3.164-0.74-4.929-1.682c-2.191-1.154-3.993-2.998-5.406-5.529     c-1.414-2.53-2.12-5.133-2.12-7.809c0-2.746,0.671-5.295,2.014-7.646c1.342-2.351,3.18-4.212,5.512-5.587     c1.553-0.938,2.931-1.518,4.134-1.732c1.2-0.218,3.603-0.324,7.207-0.324h3.922h3.074h2.968h1.907v-1.304h-1.907h-2.968h-3.074     H96.8c-3.746,0-6.253,0.108-7.525,0.326s-2.756,0.832-4.452,1.844c-2.474,1.519-4.452,3.578-5.936,6.183     c-1.484,2.603-2.225,5.351-2.225,8.24c0,2.893,0.723,5.656,2.172,8.297c1.448,2.639,3.409,4.682,5.883,6.127     c1.696,1.012,3.215,1.625,4.558,1.842c1.341,0.217,4.345,0.326,9.009,0.326h5.512h4.239h4.134h12.184     c-0.072-0.078-0.135-0.158-0.206-0.238c0.368,0.408,0.731,0.82,1.132,1.213c0.697,0.714,1.406,1.363,2.122,1.98     c-0.405-0.357-0.806-0.73-1.206-1.111h-14.026h-4.134h-4.239h-9.328c-4.099,0-7.525-0.795-10.281-2.387     c-2.756-1.59-5-3.885-6.731-6.885c-1.732-3-2.596-6.128-2.596-9.382c0-3.183,0.847-6.217,2.543-9.106     c1.696-2.894,3.957-5.205,6.784-6.94c1.837-1.085,3.445-1.753,4.823-2.007c1.378-0.252,3.975-0.379,7.79-0.379h3.922h3.074h2.968     h1.907v-1.301h-1.907h-2.968h-3.074H96.8c-3.887,0-6.571,0.146-8.055,0.434c-1.484,0.289-3.18,1.014-5.088,2.168     c-3.039,1.809-5.477,4.283-7.314,7.43c-1.838,3.145-2.755,6.416-2.755,9.812c0,4.844,1.643,9.182,4.928,13.013     c3.286,3.832,7.224,6.036,11.819,6.614c0.988,0.146,3.638,0.217,7.949,0.217h5.512h4.239h4.134h15.434     c0.786,0.667,1.582,1.279,2.388,1.846c0,0,0,0-0.001,0h-17.821h-4.134h-4.239h-5.512h-5.512c-3.603-0.072-6.889-1.014-9.857-2.82     c-3.392-1.95-6.094-4.625-8.108-8.023c-2.014-3.396-3.021-6.977-3.021-10.734c0-3.76,1.007-7.392,3.021-10.898     c2.014-3.504,4.68-6.234,8.002-8.188c2.12-1.229,3.957-1.986,5.512-2.275c1.553-0.289,4.38-0.436,8.479-0.436h3.922h3.074h2.967     h1.908v-1.302h-1.908h-2.967h-3.074H96.8c-4.17,0-7.101,0.183-8.797,0.542c-1.696,0.362-3.64,1.157-5.83,2.387     c-3.534,2.1-6.36,4.987-8.479,8.676c-2.12,3.688-3.18,7.52-3.18,11.494c0,5.494,1.943,10.481,5.829,14.965     c3.886,4.481,8.515,7.049,13.886,7.699c1.06,0.146,3.744,0.217,8.055,0.217h5.512h4.239h4.134h19.851     c1.697,0.979,3.444,1.709,5.233,2.229c-0.42-0.122-0.841-0.239-1.256-0.387h-23.828h-4.134h-4.239h-5.512h-5.512     c-4.31-0.072-8.161-1.121-11.553-3.146c-3.816-2.24-6.873-5.369-9.168-9.382c-2.297-4.013-3.445-8.187-3.445-12.524     c0-7.59,3.037-13.987,9.115-19.192c4.452-3.687,10.105-5.528,16.959-5.528h3.074h2.968h3.074h2.968h1.907v-1.303h-1.907h-2.968     h-3.074H96.8h-4.028c-4.594,0.072-8.727,1.229-12.401,3.471C76.413,159.762,73.25,162.996,70.884,167.079 M199.209,147.165h1.271     v-22.183h-1.271V147.165z M196.135,124.982v22.725l1.272-0.219v-22.506H196.135z M192.955,124.982v23.699l1.379-0.324v-23.375     H192.955z M189.775,124.982V150.2l1.377-0.649v-24.568H189.775L189.775,124.982z M186.701,124.982v27.279l1.379-1.087v-26.192     H186.701z M183.627,155.081l1.379-1.302v-5.855v-7.266c-0.07-3.254-0.105-7.145-0.105-15.676h-1.271L183.627,155.081     L183.627,155.081z M180.447,124.982v33.677l1.378-1.628v-32.049H180.447z M177.375,164.516l1.271-2.062v-37.472h-1.271V164.516z      M120.826,149.783l0.212,23.748l-0.106,5.098c0,3.903,0.477,7.141,1.431,9.705c0.954,2.566,2.597,5.007,4.929,7.318     c4.804,4.918,10.21,7.375,16.217,7.375c6.077,0,11.482-2.422,16.217-7.266c2.261-2.24,3.869-4.625,4.823-7.158     c0.954-2.528,1.432-5.602,1.432-9.217v-2.062v-1.519v-1.627v-0.977h-1.271v0.977v1.627v1.519v2.062     c0,3.471-0.442,6.361-1.325,8.676c-0.884,2.313-2.385,4.555-4.505,6.723c-4.523,4.628-9.645,6.939-15.369,6.939     c-5.724,0-10.848-2.312-15.369-6.939c-4.452-4.48-6.431-10.627-5.936-18.434c0.07-0.578,0.106-1.156,0.106-1.735v-1.085     l-0.106-8.35v-8.351c-0.071-2.099-0.106-4.229-0.106-6.397c0-5.855,2.049-10.845,6.148-14.966     c4.521-4.625,9.574-6.938,15.157-6.938c5.512,0,10.563,2.277,15.157,6.832c2.261,2.313,3.869,4.682,4.823,7.104     c0.954,2.424,1.433,5.404,1.433,8.945v2.169v1.844v1.845v1.191h1.271v-1.191v-1.845v-1.844v-2.493     c0-3.613-0.515-6.669-1.537-9.163c-1.025-2.495-2.739-4.971-5.141-7.43c-4.876-4.843-10.212-7.265-16.005-7.265     c-4.523,0-8.834,1.556-12.931,4.662C124.042,136.592,120.826,142.557,120.826,149.783 M161.528,177.219v1.952     c0,2.966-0.389,5.459-1.166,7.481c-0.778,2.025-2.12,4.014-4.028,5.965c-4.027,3.977-8.304,5.965-12.825,5.965     c-3.887,0-7.491-1.266-10.811-3.797c-3.323-2.528-5.477-5.639-6.466-9.324c-0.424-1.445-0.672-2.675-0.742-3.688     c-0.071-1.012-0.106-3.832-0.106-8.459v-8.242v-13.879c0-3.471,0.636-6.469,1.908-9c1.625-2.965,3.991-5.459,7.102-7.482     c3.108-2.023,6.111-3.036,9.009-3.036c3.249,0,6.466,1.122,9.645,3.361c3.18,2.241,5.582,5.097,7.208,8.565     c0.917,1.953,1.378,4.483,1.378,7.592v2.386v1.844v1.845v1.191h1.272v-1.191v-1.845v-1.844v-2.062     c0-3.035-0.355-5.492-1.06-7.373c-1.555-3.904-4.117-7.174-7.685-9.812c-3.569-2.639-7.191-3.958-10.864-3.958     c-3.746,0-7.491,1.464-11.235,4.392c-3.746,2.928-6.148,6.31-7.208,10.139c-0.495,1.951-0.742,5.966-0.742,12.037v8.134v8.239     c0,5.641,0.141,9.147,0.424,10.521c0.706,3.902,2.402,7.191,5.088,9.867c4.028,4.119,8.655,6.182,13.885,6.182     c4.876,0,9.434-2.097,13.673-6.289c3.745-3.902,5.618-8.711,5.618-14.423v-1.95V175.7v-1.519v-0.977h-1.272v0.977v1.519V177.219     L161.528,177.219z M158.455,177.002v1.951c0,2.387-0.177,4.193-0.53,5.423c-0.354,1.229-1.025,2.603-2.014,4.12     c-1.414,2.025-3.269,3.65-5.564,4.881c-2.298,1.229-4.576,1.844-6.837,1.844c-3.746,0-7.191-1.535-10.334-4.609     c-3.145-3.069-4.717-6.414-4.717-10.028v-7.916v-7.916l-0.106-13.558c0-4.771,1.378-8.526,4.134-11.275     c3.32-3.254,6.889-4.88,10.705-4.88c4.664,0,8.655,2.099,11.977,6.289c1.342,1.592,2.208,3.034,2.597,4.338     c0.388,1.302,0.583,3.218,0.583,5.747v2.387v1.732v1.846v1.084h1.272v-1.084v-1.846v-1.732v-2.062     c0-3.035-0.336-5.438-1.007-7.211c-0.672-1.771-1.891-3.561-3.657-5.369c-3.534-3.611-7.419-5.422-11.659-5.422     c-3.534,0-6.855,1.248-9.963,3.742c-3.11,2.494-5.018,5.44-5.724,8.838c-0.283,1.303-0.424,4.811-0.424,10.521v7.916v7.916v5.64     c0,4.338,1.023,7.952,3.074,10.844c1.625,2.313,3.638,4.121,6.041,5.422c2.402,1.302,4.84,1.951,7.314,1.951     c4.945,0,9.222-2.24,12.825-6.724c1.272-1.589,2.137-3.126,2.597-4.606c0.459-1.48,0.689-3.562,0.689-6.236v-1.951v-1.408v-1.41     v-0.977h-1.272v0.977v1.41V177.002z M155.274,176.568v1.843c0,3.108-0.495,5.495-1.484,7.157     c-1.06,1.881-2.543,3.416-4.451,4.609c-1.908,1.189-3.852,1.787-5.83,1.787c-3.039,0-5.813-1.21-8.32-3.633     c-2.509-2.422-3.763-5.078-3.763-7.973l0.106-23.312l-0.106-4.987c0-2.529,0.228-4.481,0.689-5.854     c0.459-1.373,1.325-2.712,2.597-4.013c2.543-2.604,5.405-3.903,8.585-3.903c3.673,0,6.818,1.626,9.433,4.88     c1.06,1.301,1.749,2.512,2.067,3.633c0.318,1.121,0.477,2.838,0.477,5.149v2.062v1.734v1.627v0.977h1.272v-0.977v-1.627v-1.734     v-1.844c0-2.529-0.142-4.318-0.424-5.367c-0.283-1.048-0.919-2.295-1.907-3.742c-2.899-4.047-6.537-6.072-10.918-6.072     c-3.392,0-6.571,1.447-9.539,4.339c-1.415,1.521-2.369,3.034-2.862,4.556c-0.495,1.52-0.742,3.797-0.742,6.831l0.106,4.338     l-0.106,21.361c0,3.543,0.848,6.507,2.544,8.894c2.967,3.977,6.571,5.965,10.811,5.965c2.261,0,4.434-0.65,6.519-1.953     c2.083-1.301,3.726-3.035,4.928-5.205c1.06-1.951,1.59-4.516,1.59-7.698v-1.843v-1.303v-1.302V173.1h-1.272v0.867v1.301V176.568z      M152.094,176.46v1.627c0,2.675-0.389,4.733-1.165,6.181c-1.768,3.037-4.24,4.555-7.42,4.555c-2.403,0-4.505-0.938-6.307-2.817     c-1.801-1.879-2.702-4.013-2.702-6.397v-29.82c0-2.021,0.882-3.865,2.65-5.529c1.765-1.662,3.779-2.494,6.041-2.494     c2.897,0,5.263,1.157,7.102,3.471c0.705,0.939,1.166,1.789,1.378,2.547c0.212,0.761,0.318,2.189,0.318,4.285v2.168v1.627v1.625     v0.979h1.271v-0.979v-1.625v-1.627v-1.844c0-2.312-0.089-3.904-0.265-4.771c-0.177-0.867-0.654-1.808-1.43-2.819     c-2.12-2.891-4.876-4.337-8.268-4.337c-2.615,0-4.947,0.959-6.996,2.873c-2.05,1.916-3.073,4.065-3.073,6.451v29.821     c0,2.748,1.041,5.188,3.127,7.32c2.083,2.133,4.468,3.196,7.154,3.196c1.696,0,3.321-0.472,4.876-1.409     c1.553-0.938,2.756-2.203,3.604-3.796c0.917-1.521,1.378-3.795,1.378-6.831v-1.627v-1.191v-1.301v-0.761h-1.273v0.761v1.301     V176.46L152.094,176.46z M149.127,176.242v1.627c0,2.1-0.283,3.65-0.848,4.662c-0.991,1.953-2.581,2.93-4.77,2.93     c-1.555,0-2.933-0.633-4.134-1.898c-1.202-1.264-1.802-2.728-1.802-4.392v-7.157v-7.156c0-7.732,0.035-12.289,0.107-13.664     c0.069-1.373,0.281-2.457,0.635-3.252c0.424-0.869,1.148-1.59,2.173-2.17c1.024-0.578,2.031-0.867,3.021-0.867     c2.049,0,3.639,0.979,4.77,2.93c0.565,0.797,0.848,2.312,0.848,4.557v1.95v1.626v1.52v0.977h1.272v-0.977v-1.52v-1.626v-1.733     c0-1.808-0.037-2.965-0.106-3.471c-0.072-0.506-0.355-1.119-0.848-1.845c-1.343-2.457-3.357-3.688-6.042-3.688     c-2.262,0-4.134,0.94-5.618,2.819c-0.778,0.867-1.219,1.771-1.324,2.712c-0.106,0.938-0.16,3.795-0.16,8.564v7.156v7.158v5.096     c0,3.037,0.494,5.205,1.484,6.506c1.342,2.1,3.25,3.146,5.724,3.146c2.544,0,4.521-1.193,5.936-3.578     c0.636-1.156,0.954-2.929,0.954-5.313v-1.627v-1.084v-1.192v-0.759h-1.272v0.759v1.192V176.242L149.127,176.242z      M145.841,177.545v1.408c0,2.17-0.778,3.254-2.332,3.254c-0.848,0-1.59-0.434-2.226-1.303c-0.354-0.648-0.53-3.647-0.53-9v-6.938     V152.93c0-1.953,0.176-3.181,0.53-3.688c0.565-0.797,1.307-1.192,2.226-1.192c0.918,0,1.59,0.396,2.014,1.192     c0.212,0.361,0.318,1.445,0.318,3.253v1.95v1.521v1.519v0.978h1.272v-0.978v-1.519v-1.521v-1.95c0-2.097-0.177-3.433-0.53-4.013     c-0.707-1.154-1.733-1.733-3.074-1.733c-1.131,0-2.085,0.417-2.862,1.246c-0.778,0.832-1.166,1.825-1.166,2.981v6.939v7.049     c0,9.832,0.141,15.109,0.424,15.832c0.777,1.809,1.978,2.711,3.604,2.711c1.06,0,1.924-0.416,2.597-1.246     c0.671-0.832,1.007-1.936,1.007-3.31v-1.408v-1.521v-1.084v-1.084v-0.649h-1.272v0.649v1.084v1.084V177.545z M123.674,66.221     V52.448l0.105-9.867c0-3.181-0.211-5.276-0.635-6.289c-0.425-1.013-1.344-1.662-2.756-1.952c-0.708,0-1.203,0.037-1.484,0.108     l0.212,1.302c0.14-0.071,0.459-0.109,0.954-0.109h0.106h0.212c0.352,0,0.705,0.146,1.06,0.434     c0.564,0.58,0.882,1.447,0.954,2.604v6.614v10.409v10.52v10.519v10.41v6.614h1.272v-6.614v-10.41V66.221z M118.692,32.388     c0.212-0.071,0.636-0.108,1.272-0.108h0.106c0.705,0,1.73,0.362,3.074,1.084l0.105,0.109c0.918,0.506,1.59,1.338,2.014,2.494     c0.282,0.867,0.424,6.361,0.424,16.481V66.22v10.519v10.41v6.614h1.272v-6.614v-10.41V66.221V52.448     c0-8.385-0.071-13.373-0.212-14.964c-0.142-1.589-0.601-2.891-1.378-3.903c-1.484-1.735-3.285-2.603-5.405-2.603     c-0.779,0-1.309,0.037-1.59,0.108L118.692,32.388z M117.95,29.352c0.212,0,0.493-0.036,0.848-0.108h0.212h0.212h0.212     c2.332,0,4.38,0.724,6.147,2.168c1.413,1.23,2.296,2.532,2.65,3.904c0.353,1.374,0.53,4.121,0.53,8.241v3.579l-0.106,5.312V66.22     v10.519v10.41v6.614h1.272v-6.614v-10.41V66.221V52.448l0.106-9.759c0-3.541-0.159-6.018-0.477-7.428     c-0.318-1.41-1.007-2.729-2.067-3.958c-2.05-2.313-4.629-3.47-7.737-3.47c-0.424,0-1.166,0.072-2.226,0.217L117.95,29.352z      M116.678,26.315c0.424-0.072,1.272-0.108,2.544-0.108h0.53c3.532,0,6.465,1.192,8.797,3.578c1.484,1.447,2.438,3,2.862,4.663     c0.424,1.663,0.636,4.7,0.636,9.108v3.579l-0.106,5.312v13.772v10.519v10.41v6.614h1.272v-6.614v-10.41V66.221V52.448     l0.106-9.759c0-3.975-0.23-6.832-0.689-8.566c-0.46-1.735-1.396-3.397-2.809-4.988c-2.615-2.892-6.078-4.337-10.387-4.337     c-1.06,0-2.157,0.071-3.286,0.216L116.678,26.315z M115.194,23.388c1.413-0.288,2.791-0.435,4.134-0.435     c3.744,0,6.942,0.977,9.592,2.929c2.65,1.952,4.469,4.663,5.459,8.133c0.353,1.229,0.565,2.621,0.636,4.175     c0.069,1.555,0.106,6.309,0.106,14.259v13.772V76.74v10.41v6.614h1.272V87.15V76.74V66.221V52.448     c0-9.107-0.037-14.205-0.106-15.289c-0.283-3.397-1.343-6.397-3.18-9.001c-3.18-4.408-7.738-6.614-13.673-6.614     c-1.343,0-2.968,0.182-4.876,0.543L115.194,23.388z M113.499,20.784c1.908-0.722,3.922-1.084,6.042-1.084     c3.604,0,6.942,0.995,10.016,2.982c3.074,1.989,5.422,4.646,7.049,7.97c0.776,1.664,1.272,3.253,1.484,4.771     s0.318,4.229,0.318,8.133v3.579l-0.106,5.312v13.772v10.519v10.41v6.614h1.272v-6.614v-10.41V66.221l0.105-23.531     c0-4.481-0.354-7.896-1.059-10.248c-0.708-2.348-2.051-4.679-4.028-6.994c-4.099-4.771-9.046-7.156-14.839-7.156     c-2.544,0-4.912,0.434-7.102,1.301L113.499,20.784z M111.272,18.291c2.756-1.155,8.374-1.735,8.374-1.735     c4.097,0,7.949,1.157,11.553,3.47c3.604,2.315,6.288,5.386,8.055,9.218c0.918,1.951,1.501,3.813,1.749,5.584     c0.247,1.772,0.371,4.755,0.371,8.946l-0.106,8.784v13.771V76.74v10.41v6.614h1.272V87.15V76.74V66.328v-13.77l0.106-9.651     c0-5.06-0.442-9.036-1.325-11.928c-0.884-2.891-2.456-5.602-4.716-8.133c-4.523-5.061-10.212-7.591-17.065-7.591     c-3.463,0-6.502,0.688-9.116,2.06L111.272,18.291z M54.896,135.416h1.908h3.074h3.073h2.968h6.235     c0.322-0.438,0.634-0.883,0.984-1.303h-7.431h-3.179h-3.286h-3.18h-2.014L54.896,135.416z M57.863,137.367h-1.802l0.636,1.302     h1.696h2.756h2.649h2.65h3.631c0.236-0.448,0.515-0.869,0.775-1.302h-4.512H63.48h-2.86H57.863z M52.775,132.055h2.226h3.392     h3.497h3.392h9.774c0.036-0.035,0.065-0.074,0.101-0.109c0.447-0.426,0.923-0.803,1.392-1.19H64.964h-3.71h-3.709h-3.604h-2.332     L52.775,132.055z M49.701,128.909h2.544h4.028h4.028h4.027H79.07c0.753-0.478,1.532-0.909,2.335-1.302H63.798H59.56h-4.346     h-4.346h-2.756L49.701,128.909z M60.407,147.127h-1.378v1.303h1.484h2.225h2.226h2.226h0.145     c0.024-0.494,0.052-0.936,0.084-1.303H67.19h-2.226h-2.331H60.407z M59.877,143.766h-1.484l0.212,1.301h1.484h2.331h2.332h2.332     h0.659c0.091-0.414,0.2-0.848,0.328-1.301h-1.093h-2.332h-2.332H59.877z M59.029,140.514h-1.59l0.424,1.301h1.59h2.437h2.544     h2.438h1.824c0.071-0.201,0.131-0.391,0.208-0.596c0.097-0.244,0.222-0.468,0.325-0.705h-2.463h-2.544h-2.65H59.029z      M11.543,147.127h-1.271v1.303h1.271h10.07h4.664h2.013h1.802c1.413,0,2.367,0.09,2.862,0.271     c0.494,0.182,0.883,0.635,1.166,1.354c0.212,0.508,0.318,5.495,0.318,14.965v13.664v10.409v10.41v6.507h1.272v-6.507v-10.41     v-10.409v-11.062l0.106-12.688c0-2.386-0.106-4.012-0.318-4.879s-0.672-1.59-1.378-2.168c-0.636-0.506-2.332-0.761-5.088-0.761     h-2.755h-4.664L11.543,147.127L11.543,147.127z M11.543,143.766h-1.271v1.301h1.271h10.07h4.77h2.438     c2.401,0,3.956,0.074,4.663,0.219c0.706,0.146,1.413,0.578,2.12,1.302c0.918,0.867,1.484,1.771,1.696,2.711     c0.212,0.938,0.318,3.22,0.318,6.832l-0.106,8.782v13.664v10.408v10.41v6.615h1.272v-6.615v-10.41v-10.408l0.106-23.424     c0-3.105-0.143-5.223-0.424-6.344c-0.283-1.121-0.919-2.149-1.908-3.09c-0.919-0.869-1.82-1.41-2.703-1.628     c-0.884-0.217-2.491-0.325-4.823-0.325h-2.649h-4.77H11.543z M11.543,140.514h-1.271v1.301h1.271h10.07h4.77h2.649     c2.544,0,4.222,0.09,5.035,0.271c0.812,0.182,1.749,0.705,2.809,1.57c1.696,1.375,2.756,2.748,3.18,4.121     c0.424,1.373,0.636,4.158,0.636,8.352l-0.106,8.782v13.664v10.409v10.41v6.614h1.272v-6.614v-10.41v-10.409l0.106-23.425     c0-3.758-0.212-6.252-0.636-7.479c-0.779-1.952-1.908-3.541-3.392-4.771c-1.484-1.084-2.703-1.752-3.657-2.006     c-0.954-0.252-2.703-0.379-5.247-0.379h-2.649h-4.77h-10.07V140.514z M11.543,137.367h-1.271v1.302h1.271h10.07h4.77h2.119h2.12     h0.954c3.604,0,6.572,1.374,8.904,4.121c1.412,1.591,2.313,3.162,2.703,4.717c0.387,1.556,0.583,4.429,0.583,8.621l-0.106,8.782     v13.664v10.41v10.41v6.615h1.271v-6.615v-10.41v-10.41l0.107-23.424c0-3.613-0.249-6.344-0.742-8.188     c-0.496-1.845-1.45-3.562-2.862-5.15c-2.475-2.963-5.972-4.445-10.494-4.445h-1.8h-2.756h-4.77H11.543z M11.543,134.113h-1.271     v1.303h1.271h10.07h4.77h2.119h2.12h1.06c4.452,0,8.197,1.771,11.236,5.312c1.695,1.881,2.79,3.76,3.285,5.64     c0.494,1.881,0.742,5.134,0.742,9.76l-0.106,8.782v13.664v10.41v10.41v6.614h1.272v-6.614v-10.41v-10.41V164.91l0.106-9.65     c0-4.119-0.301-7.211-0.901-9.271c-0.601-2.059-1.785-4.102-3.55-6.127c-3.251-3.829-7.526-5.745-12.826-5.745h-1.8h-2.756h-4.77     H11.543V134.113z M11.543,130.753h-1.271v1.302h1.271h10.07h4.77h2.756c2.896,0,4.91,0.107,6.041,0.325     c1.13,0.218,2.438,0.724,3.922,1.519c4.521,2.242,7.631,5.677,9.327,10.303c0.706,1.734,1.113,3.471,1.219,5.203     c0.106,1.736,0.159,6.941,0.159,15.615v13.664v10.41v10.409v6.507h1.272v-6.507v-10.409v-10.41V165.02     c0-8.746-0.071-14.006-0.212-15.776c-0.142-1.771-0.566-3.597-1.272-5.478c-1.838-4.914-5.193-8.603-10.069-11.062     c-1.626-0.866-3.039-1.408-4.24-1.626c-1.202-0.217-3.251-0.325-6.147-0.325h-2.756h-4.77H11.543z M11.543,127.607h-1.271v1.302     h1.271h10.07h4.77h2.756c3.037,0,5.228,0.127,6.571,0.379c1.342,0.255,2.932,0.813,4.77,1.683     c5.016,2.602,8.62,6.688,10.811,12.254c0.706,2.023,1.13,3.94,1.272,5.746c0.141,1.809,0.212,7.121,0.212,15.939v13.664v10.41     v10.41v6.613h1.272v-6.613v-10.41v-10.41V164.91c0-8.963-0.071-14.385-0.212-16.266c-0.142-1.879-0.601-3.867-1.378-5.965     c-2.05-5.639-5.866-9.902-11.447-12.796c-1.908-0.938-3.587-1.554-5.035-1.844c-1.449-0.288-3.728-0.435-6.836-0.435h-2.756     h-4.77h-10.07V127.607z M11.65,124.682h-1.378v1.301h1.378h10.069h4.77h2.013h2.12h1.166c5.158,0,9.874,1.664,14.151,4.988     c4.274,3.325,7.224,7.627,8.85,12.903c0.565,1.881,0.901,3.705,1.007,5.478c0.106,1.771,0.159,6.957,0.159,15.561v13.664v10.408     v10.41v6.615h1.272v-6.615v-10.41v-10.408V164.91c0-9.107-0.037-14.312-0.106-15.614c-0.424-4.481-1.732-8.493-3.922-12.036     c-5.018-8.386-12.295-12.578-21.835-12.578h-2.119h-2.756h-4.77H11.65z M26.959,85.359c-4.171,4.194-9.823,6.472-16.959,6.832     v1.301c4.168-0.217,7.595-0.866,10.281-1.951c2.685-1.084,5.194-2.855,7.526-5.313c5.016-5.059,7.525-12,7.525-20.82v-3.361     c-0.071-1.519-0.106-2.746-0.106-3.688v-8.133l-0.106-12.47h-1.272l0.212,27.76C34.061,73.902,31.692,80.518,26.959,85.359      M52.715,59.659l0.106,6.508c0,5.134-1.449,9.199-4.346,12.198c-2.898,3.001-6.82,4.5-11.765,4.5h-0.954h-1.06h-0.848H33h-0.53     l-0.742,1.303h0.636h0.954h0.954h1.272h1.166c5.369,0,9.609-1.608,12.719-4.826c3.109-3.216,4.664-7.608,4.664-13.175v-3.904     c-0.071-1.301-0.106-2.638-0.106-4.012l-0.106-8.784c-0.071-8.024-0.212-12.867-0.424-14.53s-0.778-3.433-1.696-5.313     c-1.414-2.747-3.816-4.881-7.207-6.398c-1.768-0.795-3.27-1.264-4.505-1.41c-1.237-0.144-4.505-0.217-9.805-0.217h-6.677h-5.194     h-5.088h-3.179v1.302h3.179h5.088h5.194h6.677c4.734,0,7.596,0.037,8.586,0.108c0.989,0.073,2.155,0.325,3.498,0.759     c5.511,1.808,8.797,5.422,9.857,10.844C52.397,35.841,52.573,44.19,52.715,59.659 M10,89.047v1.302     c7.489-0.434,13.212-3.181,17.171-8.242c3.32-4.191,4.981-9.868,4.981-17.024c0-6.217-0.036-15.325-0.106-27.326h-1.272     c0.07,10.482,0.106,19.735,0.106,27.76c0,6.146-1.378,11.134-4.133,14.965C23.072,85.759,17.489,88.613,10,89.047 M22.719,80.264     c-3.392,3.47-7.632,5.351-12.719,5.639v1.301c5.581-0.287,10.104-2.276,13.567-5.964c3.816-3.903,5.723-9.108,5.723-15.614     v-3.579c-0.071-1.012-0.105-2.277-0.105-3.795l-0.106-8.134l-0.106-12.361h-1.272l0.212,21.903l0.106,6.182     C28.02,71.843,26.251,76.649,22.719,80.264 M10,82.758v1.301c5.157-0.288,9.221-2.313,12.189-6.072     c2.544-3.181,3.816-7.482,3.816-12.904v-3.254c-0.071-1.444-0.106-2.673-0.106-3.687v-8.024l-0.106-12.361h-1.272l0.212,27.76     c0,4.483-0.991,8.133-2.968,10.952C19.009,80.371,15.087,82.47,10,82.758 M10,79.505v1.301c4.239-0.217,7.525-1.843,9.857-4.88     c2.049-2.604,3.074-6.182,3.074-10.735v-3.253c-0.071-1.446-0.106-2.674-0.106-3.687v-8.025l-0.106-12.362h-1.272     c0,3.616,0.016,7.862,0.053,12.742c0.035,4.88,0.069,8.531,0.106,10.952c0.035,2.423,0.053,3.779,0.053,4.067     c0,3.686-0.778,6.687-2.332,9C17.065,77.66,13.957,79.287,10,79.505 M10,76.468v1.302c3.18-0.217,5.687-1.41,7.525-3.579     c1.554-2.022,2.332-5.168,2.332-9.434v-6.615l-0.106-8.024V37.756h-1.272c0,10.049,0.035,17.35,0.106,21.903v5.64     C18.585,72.456,15.724,76.18,10,76.468 M10,73.323v1.302c1.765-0.071,3.355-0.796,4.769-2.169     c1.342-1.372,2.014-3.904,2.014-7.591v-6.507l-0.106-8.133V37.646h-1.272l0.106,22.23v5.53     C15.511,70.396,13.673,73.035,10,73.323 M10,70.07v1.302c1.412-0.071,2.437-0.651,3.074-1.735     c0.352-0.651,0.529-3.867,0.529-9.651v-7.481v-5.531v-5.639v-3.578h-1.271v3.578v5.639v5.531c0,10.338-0.072,15.688-0.212,16.048     C11.766,69.565,11.061,70.07,10,70.07 M13.18,34.61H10v1.301h3.18h5.193h5.088h5.087h5.088c2.473,0,3.886,0.038,4.24,0.109     c1.696,0.29,2.544,1.482,2.544,3.578l-0.106,5.531l0.106,4.663v3.035c-0.071,1.592-0.106,3.109-0.106,4.555l0.106,8.133     c0,1.664-0.249,2.82-0.742,3.47c-0.495,0.651-1.378,1.014-2.65,1.085v1.302c1.696-0.071,2.897-0.56,3.604-1.465     c0.705-0.902,1.06-2.332,1.06-4.282l-0.106-19.194l0.106-5.856c0-1.806-0.143-3.071-0.424-3.795     c-0.283-0.722-0.885-1.264-1.802-1.627c-0.779-0.36-3.887-0.542-9.328-0.542h-6.677h-5.088L13.18,34.61L13.18,34.61z      M13.18,31.25H10v1.301h3.18h5.193h5.088h5.087h5.194c2.614,0,4.222,0.037,4.823,0.107c0.6,0.073,1.288,0.363,2.067,0.868     c1.129,0.579,1.855,1.338,2.173,2.277c0.318,0.939,0.477,2.64,0.477,5.097l-0.106,4.229l0.106,20.711     c0,2.676-0.514,4.572-1.537,5.692c-1.025,1.122-2.774,1.72-5.247,1.79l-0.212,1.302c5.512-0.071,8.268-2.604,8.268-7.592     L44.448,45.13l0.106-4.772c0-2.385-0.231-4.12-0.689-5.205c-0.461-1.084-1.325-2.022-2.597-2.818     c-0.919-0.578-1.855-0.903-2.809-0.977c-0.954-0.071-3.693-0.107-8.215-0.107h-6.783h-5.088L13.18,31.25L13.18,31.25z      M13.18,27.995H10v1.303h3.18h5.193h5.088h5.087c6.713,0,10.635,0.181,11.766,0.542c2.332,0.723,3.922,1.861,4.769,3.416     c0.848,1.555,1.272,4.175,1.272,7.86l-0.106,3.904l0.106,20.82c0,3.47-0.707,6.037-2.119,7.7     c-1.767,1.95-4.171,2.927-7.208,2.927H36.71h-0.318H36.18h-0.318h-0.106l-0.53,1.302h0.212h0.318h0.424h0.424h0.424     c3.249,0,5.83-0.958,7.738-2.874c1.907-1.915,2.861-4.536,2.861-7.862L47.521,45.02l0.106-4.554c0-3.108-0.318-5.422-0.954-6.94     c-0.635-1.518-1.801-2.782-3.497-3.796c-1.344-0.867-2.581-1.372-3.71-1.518c-1.131-0.145-4.205-0.218-9.222-0.218h-6.783h-5.088     L13.18,27.995L13.18,27.995z M13.18,24.852H10v1.301h3.18h5.193h5.088h6.783c4.734,0,7.526,0.037,8.374,0.108     c4.24,0.434,7.313,2.242,9.221,5.422c0.989,1.664,1.484,4.663,1.484,9.001c0.141,11.423,0.212,19.881,0.212,25.374     c0,4.338-1.096,7.664-3.286,9.977c-2.331,2.386-5.442,3.578-9.327,3.578h-0.636h-0.53h-0.53h-0.424h-0.318l-0.636,1.301h0.318     h0.636h0.636h0.742h0.742c4.24,0,7.632-1.301,10.175-3.902c2.473-2.53,3.71-6.217,3.71-11.062v-3.687l-0.106-3.904v-8.783     c-0.071-9.108-0.283-14.35-0.636-15.724c-0.778-3.541-2.898-6.108-6.359-7.699c-1.415-0.65-2.721-1.029-3.922-1.139     c-1.202-0.108-4.382-0.162-9.54-0.162h-6.783h-5.088H13.18z M13.18,18.236H10v1.301h3.18h5.193h5.088h6.783     c5.441,0,8.815,0.073,10.123,0.218c1.306,0.146,2.915,0.65,4.822,1.518c2.826,1.374,5.158,3.253,6.996,5.639     c1.837,2.387,2.968,5.062,3.392,8.025c0.141,1.084,0.247,9.362,0.318,24.832v6.289c0,6.002-1.732,10.809-5.194,14.423     c-3.675,3.759-8.304,5.638-13.885,5.638h-1.484H33.53h-1.378H30.88h-0.848l-1.272,1.303h0.955h1.589h1.59h2.12h1.59     c6.077,0,11.093-2.024,15.051-6.073c3.674-3.758,5.512-8.855,5.512-15.29c0-18.795-0.071-28.916-0.212-30.362     c-0.424-3.975-1.945-7.482-4.558-10.519c-2.615-3.036-5.901-5.098-9.857-6.182c-1.908-0.505-6.007-0.759-12.296-0.759h-6.783     h-5.088L13.18,18.236L13.18,18.236z M13.18,15.092H10v1.302h3.18h5.193h5.088h5.087h5.194h3.18     c4.452,0.145,8.408,1.265,11.871,3.361c6.713,4.05,10.07,10.41,10.07,19.085v3.796v3.902l-0.106,9.109     c0,7.303-0.037,11.695-0.106,13.176c-0.072,1.482-0.283,3.021-0.636,4.608c-1.203,4.771-3.763,8.604-7.685,11.495     c-3.921,2.892-8.569,4.337-13.938,4.337h-2.014H31.94h-2.014H28.02h-1.166l-1.908,1.301h1.484h2.226h2.331h2.226h2.226h1.272     c6.784,0,12.33-2.168,16.641-6.506c4.309-4.337,6.535-9.976,6.678-16.916c0-4.409,0.034-11.747,0.106-22.013v-6.182     c0-6-1.59-10.987-4.77-14.965c-3.604-4.698-8.41-7.518-14.415-8.458c-1.696-0.288-5.265-0.434-10.706-0.434h-6.783h-5.088H13.18     V15.092z M62.626,73.16c0.387-2.421,0.582-6.921,0.582-13.501v-7.373V45.02c0-6.36-0.177-10.627-0.53-12.795     c-0.354-2.169-1.237-4.555-2.649-7.157c-3.463-6-8.692-9.977-15.687-11.929c-1.839-0.505-3.376-0.794-4.611-0.867     c-1.237-0.071-4.399-0.109-9.487-0.109h-6.783h-5.088H13.18H10v1.303h3.18h5.193h5.088h6.783c5.088,0,8.215,0.037,9.381,0.107     c1.166,0.073,2.631,0.363,4.399,0.868c6.5,1.663,11.447,5.459,14.839,11.386c1.412,2.386,2.279,4.627,2.597,6.724     c0.317,2.097,0.476,6.254,0.476,12.47v7.266v7.373c0,5.206-0.036,8.459-0.105,9.761c-0.072,1.301-0.355,2.892-0.848,4.771     c-0.92,3.978-2.899,7.591-5.936,10.844c-2.615,2.676-5.495,4.538-8.638,5.585c-3.146,1.049-7.473,1.572-12.985,1.572h-3.709     h-2.756h-2.756h-1.802l-3.18,1.301h2.12h3.392h3.392h4.451c5.724,0,9.787-0.324,12.19-0.976     c6.641-1.806,11.659-5.674,15.051-11.604C61.301,78.168,62.236,75.584,62.626,73.16 M102.311,14.713     c-3.922-2.132-7.968-3.199-12.137-3.199c-5.299,0-10.193,1.609-14.68,4.825c-4.488,3.218-7.685,7.393-9.592,12.524     c-0.636,1.881-1.025,3.416-1.166,4.609c-0.143,1.192-0.212,3.849-0.212,7.97v5.096v3.904v3.796v2.494l1.272-2.711v-2.169V48.49     v-3.36v-4.338c0-3.324,0.034-5.423,0.106-6.289c0.564-4.916,2.613-9.289,6.147-13.121c5.017-5.71,11.13-8.567,18.337-8.567     c4.309,0,8.443,1.193,12.401,3.579c3.957,2.385,7.065,5.53,9.328,9.434c1.341,2.314,2.136,4.356,2.385,6.126     c0.246,1.773,0.371,5.875,0.371,12.309v8.242v8.349c0,7.23-0.249,11.784-0.742,13.664c-0.848,3.398-2.65,6.723-5.406,9.976     c-4.876,5.568-10.954,8.351-18.231,8.351c-6.643,0-12.419-2.511-17.33-7.537c-4.912-5.024-7.366-10.933-7.366-17.73     c0-6.939,2.278-12.812,6.836-17.621c4.558-4.807,10.298-7.354,17.224-7.645v-1.301c-7.207,0.363-13.233,3.091-18.072,8.187     c-4.841,5.098-7.26,11.262-7.26,18.489c0,7.086,2.578,13.267,7.737,18.543c5.158,5.278,11.235,7.916,18.231,7.916     c5.017,0,9.609-1.337,13.779-4.012c4.169-2.674,7.348-6.398,9.54-11.169c1.129-2.313,1.801-4.338,2.013-6.073     c0.213-1.735,0.318-5.747,0.318-12.037v-8.349V36.888c-0.071-5.06-1.484-9.578-4.239-13.555     C109.427,19.72,106.231,16.846,102.311,14.713 M68.868,43.068v-3.144c0-2.387,0.035-3.94,0.106-4.663     c0.424-4.121,2.19-8.025,5.3-11.712c4.097-4.988,9.362-7.482,15.793-7.482c4.381,0,8.443,1.301,12.189,3.904     c3.745,2.602,6.429,6.037,8.056,10.302c0.705,1.664,1.113,3.109,1.219,4.337c0.106,1.23,0.159,4.592,0.159,10.085v8.241V68.66     c-0.072,3.832-0.991,7.157-2.756,9.977c-1.979,3.398-4.629,6.091-7.949,8.079c-3.323,1.988-6.855,2.981-10.6,2.981     c-5.866,0-10.917-2.205-15.157-6.614c-4.24-4.409-6.36-9.651-6.36-15.724c0-5.783,2.067-10.807,6.201-15.073     c4.134-4.265,9.062-6.507,14.786-6.724v-1.301c-6.078,0.217-11.306,2.603-15.687,7.157c-4.382,4.555-6.571,9.867-6.571,15.94     c0,6.289,2.26,11.802,6.783,16.536c4.521,4.736,9.786,7.104,15.793,7.104c4.309,0,8.549-1.372,12.719-4.12     c4.169-2.747,7.208-6.795,9.116-12.146c0.493-1.372,0.776-2.963,0.848-4.771c0.069-1.807,0.106-7.482,0.106-17.025v-8.241     c0-5.71-0.072-9.144-0.212-10.302c-0.567-4.192-2.263-7.951-5.088-11.277c-4.663-5.565-10.53-8.35-17.595-8.35     c-4.735,0-9.062,1.41-12.984,4.229s-6.696,6.545-8.321,11.17c-0.778,2.241-1.165,5.639-1.165,10.192v3.579v2.819v2.711V51.2     l1.271-1.843v-1.518v-2.387V43.068L68.868,43.068z M71.942,40.25v-1.627c0-5.35,1.784-9.903,5.353-13.663     c3.567-3.759,7.86-5.64,12.878-5.64c3.745,0,7.261,1.158,10.547,3.471c3.285,2.314,5.599,5.277,6.942,8.892     c0.424,1.158,0.671,2.622,0.742,4.392c0.069,1.772,0.106,7.357,0.106,16.754v8.134c0,5.35-0.037,8.458-0.106,9.324     c-0.283,3.11-1.414,6.037-3.392,8.784c-1.696,2.314-3.852,4.14-6.465,5.477c-2.615,1.339-5.371,2.006-8.268,2.006     c-4.876,0-9.133-1.879-12.772-5.64c-3.64-3.758-5.459-8.168-5.459-13.229c0-5.349,1.66-9.776,4.982-13.284     c3.321-3.505,7.595-5.402,12.825-5.692v-1.302c-5.511,0.29-10.069,2.351-13.673,6.182c-3.604,3.833-5.406,8.53-5.406,14.097     c0,5.351,1.978,10.049,5.936,14.097c3.956,4.05,8.514,6.072,13.673,6.072c4.169,0,7.966-1.264,11.394-3.795     c3.427-2.53,5.812-5.818,7.155-9.868c0.424-1.228,0.671-2.746,0.742-4.554c0.069-1.806,0.106-7.41,0.106-16.809v-8.024     c0-5.493-0.037-8.675-0.106-9.542c-0.283-3.397-1.661-6.615-4.134-9.651c-3.958-5.06-9.081-7.591-15.369-7.591     c-5.442,0-10.053,2.025-13.832,6.073c-3.781,4.049-5.671,8.964-5.671,14.747v1.734v2.169v1.735v1.627v1.084l1.272-1.41v-0.867     v-1.409v-1.41V40.25L71.942,40.25z M75.229,39.49v-1.084c0-4.121,1.519-7.789,4.558-11.007c3.037-3.216,6.5-4.826,10.387-4.826     c2.685,0,5.388,0.922,8.109,2.767c2.719,1.843,4.717,4.139,5.988,6.886c0.636,1.374,1.007,2.729,1.113,4.066     c0.106,1.339,0.159,5.404,0.159,12.198c0,14.026-0.106,21.58-0.318,22.664c-0.778,3.399-2.615,6.272-5.511,8.621     c-2.899,2.351-6.042,3.524-9.434,3.524c-4.099,0-7.615-1.555-10.546-4.663c-2.933-3.107-4.399-6.867-4.399-11.277     c0-4.338,1.36-7.952,4.081-10.844c2.719-2.891,6.201-4.373,10.44-4.446v-1.301c-4.523,0.072-8.286,1.699-11.288,4.879     c-3.004,3.182-4.505,7.122-4.505,11.82c0,4.627,1.607,8.64,4.823,12.037C82.1,82.902,85.898,84.6,90.28,84.6     c6.572,0,11.517-3.216,14.839-9.651c0.848-1.589,1.341-2.979,1.484-4.175c0.141-1.192,0.212-4.5,0.212-9.922v-7.699V38.515     c-0.071-3.397-0.884-6.252-2.438-8.567c-1.555-2.528-3.675-4.607-6.359-6.234c-2.687-1.627-5.336-2.44-7.95-2.44     c-4.382,0-8.161,1.718-11.341,5.151c-3.18,3.435-4.77,7.465-4.77,12.091v1.193v1.518v1.084v1.193v0.65l1.272-0.868v-0.649v-0.868     v-0.976V39.49z M78.408,39.057v-0.65c0-3.324,1.201-6.271,3.604-8.838c2.401-2.564,5.157-3.85,8.267-3.85     c2.613,0,5.07,0.995,7.367,2.981c2.295,1.989,3.691,4.321,4.187,6.995c0.281,1.302,0.423,7.229,0.423,17.783     c0,10.556-0.142,16.412-0.423,17.568c-0.567,2.53-1.98,4.662-4.24,6.396c-2.263,1.735-4.735,2.604-7.42,2.604     c-3.18,0-5.936-1.247-8.267-3.741c-2.332-2.494-3.498-5.477-3.498-8.946c0-3.325,1.06-6.127,3.18-8.403     c2.12-2.278,4.839-3.525,8.161-3.742v-1.302c-3.604,0.218-6.608,1.61-9.009,4.176c-2.403,2.566-3.604,5.656-3.604,9.271     c0,3.759,1.307,7.031,3.922,9.813c2.613,2.784,5.652,4.175,9.115,4.175c2.897,0,5.494-0.813,7.791-2.44     c2.295-1.626,3.903-3.812,4.822-6.56c0.353-0.868,0.547-2.096,0.583-3.688c0.035-1.589,0.053-6.686,0.053-15.29v-7.698     c0-5.205-0.036-8.169-0.106-8.893c-0.212-2.529-1.096-4.807-2.649-6.832c-2.687-3.687-6.148-5.529-10.388-5.529     c-3.534,0-6.608,1.393-9.221,4.175c-2.615,2.784-3.922,6.055-3.922,9.812v0.867v0.868v0.76v0.759v0.434l1.272-0.542v-0.436     v-0.542v-0.649V39.057L78.408,39.057z M81.588,38.84v-0.325c0-2.457,0.901-4.645,2.702-6.562     c1.802-1.913,3.833-2.872,6.095-2.872c2.402,0,4.468,0.922,6.201,2.765c1.73,1.843,2.597,4.031,2.597,6.561v7.699v7.807v7.699     c0,4.917-0.09,7.862-0.265,8.838c-0.178,0.977-0.761,1.972-1.749,2.982c-2.051,2.242-4.346,3.362-6.89,3.362     c-2.12,0-4.276-1.12-6.465-3.362c-1.484-2.169-2.226-4.083-2.226-5.747c0-2.457,0.811-4.571,2.438-6.344     c1.624-1.771,3.567-2.692,5.829-2.766v-1.301c-2.686,0.073-4.947,1.121-6.783,3.146c-1.839,2.023-2.756,4.445-2.756,7.265     c0,2.675,1.007,5.08,3.021,7.211c2.013,2.133,4.292,3.199,6.836,3.199s4.945-0.977,7.208-2.928     c1.2-1.084,2.014-2.187,2.438-3.308c0.424-1.12,0.635-2.837,0.635-5.15v-5.098v-7.699V39.925c0-4.121-1.131-7.193-3.391-9.218     c-2.12-1.951-4.417-2.928-6.89-2.928c-2.615,0-4.912,1.067-6.889,3.199c-1.979,2.133-2.968,4.646-2.968,7.536v0.434v0.542v0.435     v0.433v0.326l1.272-0.326v-0.216v-0.434v-0.326V38.84L81.588,38.84z M84.662,38.406v-0.325c0-1.445,0.583-2.746,1.749-3.904     c1.166-1.155,2.455-1.735,3.869-1.735c1.413,0,2.72,0.526,3.922,1.573c1.201,1.048,1.802,2.223,1.802,3.523v7.699v7.699     l0.106,13.338c0,1.591-0.106,2.73-0.318,3.416c-0.212,0.688-0.707,1.394-1.484,2.115c-1.343,1.157-2.756,1.735-4.24,1.735     c-1.555,0-2.898-0.651-4.028-1.952c-0.919-0.939-1.378-2.278-1.378-4.014c0-1.662,0.477-3.035,1.431-4.119     c0.954-1.086,2.208-1.662,3.763-1.735v-1.3c-1.979,0.071-3.55,0.759-4.717,2.06c-1.165,1.301-1.748,3.001-1.748,5.096     c0,2.025,0.652,3.742,1.96,5.151c1.307,1.41,2.879,2.115,4.717,2.115c1.554,0,3.038-0.505,4.452-1.519     c1.908-1.445,2.825-3.613,2.756-6.507v-6.072c0-16.119-0.106-24.507-0.318-25.157c-0.424-1.229-1.29-2.277-2.597-3.146     c-1.308-0.867-2.668-1.301-4.081-1.301c-1.838,0-3.445,0.688-4.823,2.06c-1.377,1.375-2.066,3.001-2.066,4.881v0.434v0.434v0.325     v0.325v0.217l1.271-0.217v-0.217v-0.216V38.84V38.406z M87.841,38.298v-0.217c0-1.662,0.742-2.494,2.226-2.494     c0.777,0,1.413,0.235,1.908,0.705c0.494,0.471,0.742,1.103,0.742,1.897v29.604c0,1.591-0.778,2.386-2.332,2.386     c-0.707,0-1.308-0.271-1.802-0.813c-0.495-0.542-0.742-1.21-0.742-2.006c0-1.085,0.671-1.844,2.014-2.277V63.78     c-2.191,0.58-3.286,1.772-3.286,3.579c0,1.157,0.388,2.133,1.166,2.927c0.777,0.798,1.696,1.193,2.756,1.193     c1.06,0,1.908-0.325,2.544-0.976c0.636-0.65,0.954-1.554,0.954-2.711V38.189c0-1.156-0.371-2.096-1.113-2.82     c-0.742-0.722-1.679-1.084-2.809-1.084c-1.06,0-1.908,0.345-2.544,1.03c-0.636,0.688-0.954,1.61-0.954,2.766v0.217v0.325v0.217     v0.326v0.107h1.272v-0.107V38.84v-0.217V38.298z M119.329,11.893c-4.452,0-8.374,1.014-11.766,3.037l1.272,0.867     c2.897-1.735,6.466-2.603,10.706-2.603c5.299,0,10.122,1.556,14.468,4.662c4.346,3.11,7.33,7.195,8.956,12.254     c0.706,2.099,1.113,4.066,1.219,5.91c0.106,1.843,0.159,7.32,0.159,16.428V66.22v10.519v10.41v6.614h1.272v-6.614v-10.41V66.221     V52.448c0-9.396-0.071-14.854-0.212-16.374c-0.495-5.565-2.368-10.409-5.618-14.53C134.697,15.11,127.877,11.893,119.329,11.893      M277.648,14.368h2.016v-1.301h-2.016h-6.605h-3.074h-4.135c-3.322,0-5.441,0.037-6.357,0.109     c-0.488,0.045-0.967,0.111-1.442,0.185c0.073-0.021,0.159-0.041,0.226-0.061h-34.285h-4.24h-5.512     c-4.664,0-7.598,0.054-8.799,0.162s-2.756,0.487-4.664,1.139c-3.604,1.157-6.781,3.055-9.537,5.693     c-2.758,2.64-4.844,5.729-6.256,9.271c-0.777,2.097-1.256,3.886-1.431,5.367c-0.179,1.483-0.267,4.5-0.267,9.055v5.097v3.796     v3.903v2.386l1.271-3.036v-2.061V50.82v-3.254v-4.337c0-3.758,0.068-6.252,0.211-7.481s0.494-2.712,1.061-4.446     c1.131-3.398,2.934-6.415,5.406-9.055c2.473-2.639,5.406-4.645,8.799-6.019c2.685-1.085,6.465-1.627,11.34-1.627h4.136h4.237     h4.24h29.289c-1.199,0.447-2.371,0.983-3.51,1.627h-25.779h-4.24h-5.512c-4.383,0-7.137,0.054-8.268,0.162     c-1.131,0.109-2.544,0.453-4.24,1.03c-3.179,1.014-6.006,2.693-8.479,5.043c-2.477,2.35-4.275,5.079-5.406,8.187     c-0.99,2.675-1.484,6.472-1.484,11.386v3.471v2.603v2.603v1.627l1.271-1.735v-1.41v-2.276V44.64v-3.037     c0-4.12,0.354-7.265,1.061-9.434c0.918-2.963,2.475-5.602,4.664-7.916c2.189-2.313,4.771-4.083,7.737-5.313     c2.474-0.938,5.899-1.41,10.282-1.41h4.134h4.239h4.24h23.721c-0.352,0.242-0.699,0.482-1.043,0.743     c-3.109,2.532-5.582,5.693-7.418,9.489c-0.221,0.454-0.396,0.913-0.586,1.371h-14.674h-4.24c-7.986,0-12.508,0.145-13.566,0.434     c-2.191,0.579-3.994,1.753-5.406,3.524c-1.414,1.771-2.119,3.705-2.119,5.801v0.759v0.868v0.65v0.543v0.433l1.271-0.433v-0.326     v-0.542v-0.542v-0.759v-0.542c0-3.471,1.73-6,5.193-7.592c0.986-0.505,1.854-0.795,2.597-0.866     c0.741-0.072,2.915-0.109,6.519-0.109h5.512h4.24h14.15c0.012-0.042,0.033-0.084,0.049-0.127     c-0.25,0.691-0.479,1.383-0.672,2.079h-13.527h-4.24c-7.701,0-11.871,0.073-12.506,0.217c-1.627,0.434-2.969,1.284-4.029,2.548     c-1.061,1.267-1.59,2.621-1.59,4.067v0.433v0.435v0.434v0.434v0.217l1.271-0.217v-0.217v-0.326v-0.433v-0.434v-0.325     c0-2.096,1.166-3.759,3.498-4.989c0.85-0.36,3.461-0.542,7.844-0.542h5.512h4.24h13.174c0.064-0.34,0.189-0.7,0.293-1.076     c-0.277,1.04-0.514,2.084-0.666,3.138h-12.801h-4.24c-7.631,0-11.729,0.071-12.295,0.216c-1.695,0.362-2.543,1.375-2.543,3.037     v0.433v0.434v0.435v0.325v0.217h1.271V40.63v-0.325V39.98v-0.33v-0.433c0-0.939,0.492-1.59,1.482-1.952     c0.354-0.144,1.59-0.217,3.711-0.217h4.133h4.24h4.239h12.642c-0.072,0.787-0.137,1.575-0.137,2.37     c0,7.013,2.543,13.121,7.631,18.325c2.049,2.169,4.484,3.977,7.312,5.423c2.826,1.446,5.439,2.206,7.846,2.276     c2.117,0.146,3.354,0.363,3.709,0.651c0.775,0.579,1.166,1.301,1.166,2.168c0,0.94-0.318,1.627-0.955,2.061     c-0.354,0.362-0.865,0.561-1.535,0.597c-0.674,0.037-2.773,0.054-6.309,0.054h-6.254h-4.875l-16.107,0.067h-4.135h-4.238     c-7.49,0-11.342-0.035-11.555-0.108c-1.201-0.216-1.803-1.008-1.803-2.379c0-1.081,0.391-1.838,1.166-2.271     c0.424-0.288,2.154-0.433,5.193-0.433h3.922h3.072h2.969h1.908v-1.297h-1.908h-2.969h-3.072c-5.725,0-8.834,0.107-9.326,0.324     c-1.484,0.578-2.229,1.803-2.229,3.676c0,1.729,0.707,2.884,2.121,3.46c0.424,0.217,2.756,0.325,6.994,0.325h5.512h4.24h4.135     l8.832-0.063h2.506h4.771h4.875c8.762,0,13.354-0.072,13.777-0.217c1.695-0.722,2.543-1.952,2.543-3.687     c0-1.086-0.369-2.007-1.111-2.766s-1.605-1.175-2.598-1.247c-5.795-0.288-10.703-2.132-14.732-5.531     c-2.896-2.385-5.156-5.295-6.781-8.729c-1.627-3.433-2.438-6.922-2.438-10.464c0-5.422,1.571-10.373,4.717-14.856     c3.146-4.481,7.188-7.554,12.138-9.218c2.399-0.794,6.147-1.193,11.233-1.193h4.135h3.074h6.604v0.002H277.648z M188.688,40.844     v-1.735c0-6.939,2.97-12.216,8.903-15.832c1.767-1.084,3.392-1.789,4.875-2.114c1.484-0.325,3.781-0.487,6.892-0.487h4.135h4.238     h4.24h20.065c0.448-0.443,0.856-0.876,1.346-1.302h-21.411h-4.24h-5.513c-4.098,0-6.643,0.037-7.631,0.108     c-0.989,0.073-2.19,0.362-3.604,0.867c-2.825,0.941-5.336,2.439-7.522,4.501c-2.19,2.06-3.815,4.464-4.877,7.211     c-0.776,2.097-1.166,5.134-1.166,9.108v2.386v1.952v1.843v1.193l1.271-1.302v-0.976V44.64v-1.735V40.844z M191.551,40.409v-1.191     c0-5.71,2.473-10.048,7.418-13.014c1.768-1.012,3.27-1.627,4.506-1.843c1.236-0.217,4.115-0.326,8.639-0.326h5.617h4.136h17.521     c0.32-0.441,0.562-0.873,0.916-1.301h-18.438h-4.135c-7.065,0-11.308,0.054-12.719,0.163c-1.414,0.108-2.826,0.452-4.24,1.03     c-3.25,1.301-5.812,3.326-7.685,6.072c-1.873,2.749-2.812,5.819-2.812,9.218v1.409v1.734v1.41v1.301v0.868l1.272-0.976v-0.759     V43.12v-1.191L191.551,40.409L191.551,40.409z M194.73,39.977v-0.759c0-2.313,0.636-4.446,1.908-6.398     c1.271-1.952,3.002-3.433,5.191-4.445c1.199-0.506,2.24-0.814,3.127-0.923c0.883-0.107,3.301-0.163,7.26-0.163h5.514h4.24h15.482     c0.219-0.44,0.467-0.87,0.717-1.301h-16.199h-4.24c-8.338,0-13.107,0.146-14.311,0.435c-2.896,0.723-5.281,2.276-7.152,4.663     c-1.873,2.385-2.811,5.024-2.811,7.916v1.192v1.192v0.868v0.976v0.542l1.271-0.651v-0.542V41.82v-0.759v-1.084H194.73z      M277.648,17.297h2.016v-1.302h-2.016h-6.605h-3.074h-4.135c-3.18,0-5.229,0.037-6.146,0.108     c-4.311,0.434-8.197,2.098-11.66,4.989c-2.686,2.313-4.787,5.096-6.307,8.349c-1.521,3.254-2.277,6.615-2.277,10.085     c0,3.183,0.725,6.327,2.172,9.435s3.408,5.748,5.885,7.916c3.814,3.47,8.549,5.313,14.202,5.53     c1.411,0.073,2.687,0.705,3.815,1.897c1.129,1.193,1.695,2.513,1.695,3.958c0,1.808-0.672,3.291-2.016,4.446     c-0.848,0.724-1.678,1.157-2.49,1.302c-0.812,0.145-3.27,0.216-7.365,0.216h-6.254h-4.875l-7.845,0.058h-8.265h-4.133h-4.24     c-6.146,0-9.787-0.034-10.918-0.107c-1.131-0.071-2.049-0.287-2.756-0.649c-1.84-1.008-2.758-2.703-2.758-5.082     c0-2.232,0.918-3.892,2.758-4.974c0.564-0.36,1.131-0.576,1.695-0.648c0.562-0.07,2.227-0.108,4.98-0.108h3.922h3.072h2.969     h1.908v-1.297h-1.908h-2.969h-3.072h-3.604c-3.037,0-4.875,0.036-5.512,0.107c-0.637,0.073-1.344,0.324-2.119,0.757     c-2.263,1.443-3.395,3.497-3.395,6.163c0,2.309,0.85,4.217,2.545,5.731c0.85,0.721,1.695,1.135,2.545,1.244     c0.848,0.107,3.215,0.162,7.102,0.162h5.514h4.24h4.133l8.834-0.055h2.504h4.771h4.875h11.871     c1.836-0.071,3.285-0.47,4.347-1.192c2.118-1.373,3.18-3.362,3.18-5.964c0-1.808-0.707-3.452-2.119-4.935     c-1.414-1.48-2.969-2.259-4.664-2.332c-5.088-0.216-9.362-1.735-12.825-4.554c-2.543-2.023-4.541-4.554-5.987-7.591     c-1.449-3.036-2.172-6.144-2.172-9.325c0-3.254,0.741-6.453,2.225-9.598c1.484-3.145,3.498-5.729,6.041-7.754     c2.332-1.879,4.541-3.18,6.625-3.902c2.084-0.723,4.787-1.085,8.108-1.085h3.074h3.181h3.073L277.648,17.297L277.648,17.297z      M277.648,20.441h2.016V19.14h-2.016h-6.605h-3.074h-4.135c-3.039,0-4.98,0.037-5.828,0.108     c-3.816,0.434-7.244,1.951-10.281,4.555c-4.807,4.12-7.207,9.397-7.207,15.832c0,5.35,1.854,9.938,5.562,13.771     c3.711,3.833,8.25,5.82,13.62,5.964c2.401,0.073,4.415,0.977,6.042,2.712c1.625,1.734,2.438,3.833,2.438,6.29     c0,4.119-1.838,6.903-5.512,8.35c-0.99,0.433-4.1,0.65-9.326,0.65h-6.254h-4.875h-4.771l-3.072,0.049h-8.266h-4.133h-4.24     c-6.502,0-10.388-0.055-11.66-0.162c-1.271-0.108-2.401-0.414-3.391-0.919c-1.345-0.721-2.439-1.839-3.287-3.353     c-0.849-1.514-1.271-3.062-1.271-4.649c0-3.315,1.446-5.874,4.344-7.678c1.414-0.864,3.464-1.298,6.147-1.298h3.074h2.969h3.072     h2.969h1.908v-1.297h-1.908h-2.969h-3.072h-3.604c-3.321,0-5.389,0.054-6.2,0.162s-1.785,0.524-2.914,1.244     c-3.394,2.162-5.088,5.119-5.088,8.866c0,2.45,0.758,4.633,2.278,6.542c1.519,1.911,3.408,3.082,5.67,3.514     c0.849,0.216,3.322,0.324,7.42,0.324h5.513h4.24h4.133l8.834-0.045h2.504h4.771h4.875h4.77h4.771     c2.756,0,4.594-0.108,5.514-0.325c0.918-0.217,1.978-0.759,3.18-1.626c2.756-2.096,4.134-4.88,4.134-8.35     c0-2.675-0.954-5.024-2.862-7.05c-1.906-2.022-4.205-3.106-6.89-3.253c-5.157-0.144-9.433-1.969-12.825-5.476     c-3.391-3.506-5.086-7.825-5.086-12.958c0-4.338,1.357-8.296,4.079-11.874c2.72-3.579,6.095-5.873,10.123-6.886     c1.2-0.288,3.815-0.435,7.843-0.435h4.135h3.074h6.604v0.002H277.648z M277.648,23.804h2.016v-1.302h-2.016h-6.605h-3.074h-4.135     c-3.039,0-4.912,0.038-5.617,0.108c-3.109,0.289-5.936,1.482-8.479,3.578c-4.028,3.399-6.043,7.845-6.043,13.338     c0,4.988,1.838,9.146,5.513,12.472c2.897,2.53,6.396,3.902,10.493,4.119c3.25,0.073,6.007,1.302,8.27,3.688     c2.26,2.386,3.391,5.278,3.391,8.675c0,2.532-0.707,4.826-2.118,6.886c-1.414,2.061-3.322,3.524-5.726,4.393     c-1.271,0.434-4.664,0.649-10.174,0.649h-6.255h-4.875h-4.771l-3.074,0.04h-8.264h-4.135h-4.24     c-6.57,0-10.478-0.035-11.711-0.107c-1.238-0.071-2.353-0.287-3.34-0.648c-2.263-0.936-4.117-2.45-5.563-4.542     c-1.449-2.09-2.173-4.361-2.173-6.812c0-2.09,0.545-4.09,1.644-6.001c1.095-1.909,2.56-3.406,4.397-4.487     c1.271-0.793,2.385-1.261,3.338-1.406c0.955-0.144,3.093-0.216,6.414-0.216h3.922h3.072h2.969h1.908V54.93h-1.908h-2.969h-3.072     h-3.922c-3.463,0-5.707,0.091-6.731,0.271c-1.024,0.181-2.243,0.667-3.655,1.459c-1.979,1.154-3.588,2.812-4.822,4.975     c-1.235,2.163-1.854,4.396-1.854,6.704s0.619,4.541,1.854,6.704c1.233,2.162,2.877,3.821,4.929,4.974     c1.342,0.794,2.508,1.281,3.498,1.46c0.987,0.18,2.791,0.27,5.405,0.27h4.135h4.238h4.24h4.133l8.834-0.035h2.504h4.771h4.875     h6.254c4.309,0,6.854-0.036,7.631-0.109c2.756-0.288,5.158-1.301,7.207-3.036c2.969-2.603,4.453-5.927,4.453-9.976     c0-3.688-1.256-6.887-3.764-9.598c-2.51-2.711-5.564-4.102-9.169-4.175c-3.675-0.071-6.748-1.192-9.222-3.362     c-3.674-3.035-5.513-7.011-5.513-11.928c0-3.253,0.937-6.289,2.81-9.108s4.257-4.734,7.156-5.747     c1.482-0.578,4.449-0.867,8.9-0.867h4.137h3.072h6.604v-0.002H277.648z M277.648,27.057h2.016v-1.302h-2.016h-6.605h-3.074     h-4.135c-2.968,0-4.734,0.038-5.299,0.108c-2.475,0.218-4.807,1.267-6.996,3.146c-3.18,2.892-4.77,6.435-4.77,10.627     c0,3.686,1.234,6.831,3.709,9.434c2.474,2.603,5.547,3.941,9.221,4.013c4.17,0.072,7.668,1.591,10.494,4.554     c2.826,2.965,4.24,6.58,4.24,10.844c0,3.182-0.938,6.11-2.811,8.784c-1.873,2.675-4.328,4.519-7.367,5.53     c-1.199,0.434-2.242,0.688-3.127,0.759c-0.883,0.073-3.479,0.108-7.789,0.108h-6.254h-4.875h-4.771l-3.074,0.03h-8.264h-4.135     h-4.24c-7.418,0-11.889-0.089-13.408-0.27c-1.52-0.18-3.162-0.738-4.928-1.677c-2.191-1.151-3.994-2.989-5.406-5.515     c-1.414-2.521-2.119-5.117-2.119-7.785c0-2.738,0.672-5.278,2.016-7.623c1.342-2.341,3.182-4.197,5.512-5.567     c1.555-0.937,2.932-1.515,4.135-1.73c1.201-0.217,3.604-0.325,7.207-0.325h3.922h3.074h2.967h1.908v-1.297h-1.908h-2.967h-3.074     h-3.922c-3.746,0-6.254,0.108-7.525,0.324s-2.756,0.83-4.451,1.838c-2.475,1.514-4.451,3.568-5.936,6.164     c-1.484,2.595-2.229,5.335-2.229,8.217c0,2.884,0.727,5.642,2.176,8.272c1.445,2.632,3.406,4.668,5.883,6.108     c1.693,1.012,3.213,1.622,4.557,1.839c1.342,0.217,4.346,0.324,9.01,0.324h5.512h4.24h4.135l11.338-0.026h4.771h4.875h6.254     c4.451,0,7.062-0.036,7.844-0.109c3.25-0.288,6.146-1.48,8.691-3.578c3.885-3.18,5.83-7.374,5.83-12.579     c0-4.625-1.537-8.566-4.611-11.819c-3.072-3.253-6.871-4.951-11.396-5.097c-3.391-0.144-6.184-1.337-8.373-3.579     c-2.189-2.239-3.285-5.096-3.285-8.565c0-2.53,0.76-4.897,2.277-7.104c1.521-2.205,3.445-3.776,5.777-4.717     c1.199-0.505,3.779-0.759,7.736-0.759h4.135h3.074H277.648z M277.648,30.2h2.016v-1.301h-2.016h-6.605h-3.074h-3.711     c-3.109,0-4.945,0.037-5.51,0.109c-2.053,0.216-3.923,1.191-5.619,2.927c-2.119,2.315-3.18,4.88-3.18,7.7     c0,2.892,0.918,5.296,2.756,7.211c1.838,1.916,4.17,2.911,6.995,2.981c5.017,0.146,9.257,2.007,12.72,5.584     c3.461,3.579,5.193,7.899,5.193,12.96c0,3.831-1.111,7.356-3.338,10.572c-2.229,3.217-5.178,5.477-8.854,6.777     c-1.414,0.579-2.633,0.905-3.654,0.976c-1.025,0.073-3.834,0.108-8.428,0.108h-6.254h-4.875h-4.771l-11.338,0.021h-4.135h-4.24     H208.4c-4.1,0-7.525-0.792-10.279-2.379c-2.758-1.585-5-3.874-6.73-6.865c-1.731-2.99-2.598-6.109-2.598-9.354     c0-3.171,0.85-6.199,2.543-9.083c1.695-2.882,3.957-5.189,6.785-6.92c1.836-1.081,3.441-1.747,4.82-2     c1.377-0.252,3.977-0.379,7.791-0.379h3.922h3.072h2.969h1.908v-1.297h-1.908h-2.969h-3.072h-3.922     c-3.887,0-6.57,0.145-8.057,0.432c-1.484,0.289-3.18,1.011-5.088,2.163c-3.039,1.802-5.477,4.271-7.312,7.406     c-1.838,3.136-2.756,6.398-2.756,9.786c0,4.83,1.645,9.155,4.93,12.975c3.285,3.822,7.225,6.021,11.816,6.596     c0.988,0.146,3.639,0.217,7.949,0.217h5.512h4.24h4.135l11.338-0.018h4.771h4.875h4.771h4.77c3.957,0,6.979-0.326,9.062-0.976     c2.084-0.651,4.222-1.915,6.412-3.796c4.521-3.759,6.781-8.71,6.781-14.856c0-5.422-1.854-10.066-5.562-13.934     c-3.709-3.867-8.25-5.873-13.62-6.019c-2.474-0.071-4.505-0.938-6.095-2.603c-1.59-1.662-2.385-3.758-2.385-6.289     c0-2.604,0.918-4.843,2.756-6.725c1.201-1.301,2.277-2.076,3.232-2.33c0.953-0.254,3.16-0.381,6.623-0.381h4.136h3.073h6.605     V30.2H277.648z M277.648,33.454h2.016v-1.302h-2.016h-6.605h-3.074c-5.088,0-8.127,0.056-9.115,0.163     c-0.99,0.108-1.943,0.525-2.86,1.247c-2.12,1.591-3.181,3.616-3.181,6.073c0,1.951,0.65,3.597,1.961,4.934     c1.309,1.338,2.947,2.043,4.929,2.114c6.007,0.217,11.007,2.404,14.999,6.561c3.99,4.158,5.986,9.236,5.986,15.235     c0,4.483-1.289,8.604-3.867,12.362c-2.582,3.76-5.92,6.397-10.018,7.916c-1.627,0.58-3.039,0.922-4.24,1.029     c-1.201,0.109-4.273,0.163-9.221,0.163h-6.359h-4.77h-4.771h-3.072v0.014h-8.266h-4.133h-4.24h-5.512h-5.513     c-3.604-0.071-6.89-1.01-9.856-2.812c-3.392-1.945-6.095-4.611-8.107-8.001c-2.016-3.388-3.021-6.956-3.021-10.705     c0-3.747,1.006-7.369,3.021-10.867c2.015-3.494,4.681-6.217,8.003-8.162c2.119-1.226,3.956-1.982,5.512-2.271     c1.556-0.287,4.382-0.433,8.479-0.433h3.923h3.073h2.968h1.907v-1.297H220.7h-2.968h-3.073h-3.923     c-4.17,0-7.104,0.181-8.797,0.541c-1.696,0.36-3.643,1.153-5.83,2.378c-3.534,2.092-6.359,4.974-8.479,8.65     c-2.12,3.676-3.181,7.498-3.181,11.461c0,5.479,1.941,10.453,5.828,14.922c3.888,4.471,8.517,7.028,13.888,7.678     c1.062,0.145,3.744,0.216,8.056,0.216h5.512h4.24h4.135l8.832-0.009h2.506h4.771h4.769h6.361c4.592,0,7.418-0.035,8.479-0.108     c4.805-0.505,8.938-2.277,12.401-5.314c5.155-4.554,7.735-10.301,7.735-17.24c0-6.361-2.155-11.783-6.466-16.267     c-4.311-4.481-9.575-6.794-15.793-6.939c-1.768,0-3.18-0.651-4.239-1.952c-0.918-1.012-1.377-2.277-1.377-3.795     c0-1.735,0.636-3.254,1.907-4.555c0.775-0.795,1.52-1.265,2.227-1.41c0.704-0.145,2.577-0.217,5.616-0.217h4.136h3.073     L277.648,33.454L277.648,33.454z M321.285,118.501V95.5c0-2.82-0.672-5.784-2.014-8.894c-1.342-3.106-3.107-5.747-5.301-7.916     c-4.43-4.461-10.498-7.001-18.186-7.647v-0.002h-0.016c-0.145-0.013-9.559-0.001-10.883,0c0.09-0.883,0.145-1.771,0.145-2.669     c0-6.724-2.332-12.688-6.996-17.894c-2.051-2.312-4.541-4.246-7.473-5.801c-2.934-1.554-5.707-2.403-8.32-2.548     c-2.33-0.071-3.676-0.253-4.027-0.543c-0.635-0.504-0.951-1.155-0.951-1.951c0-1.229,0.457-2.062,1.377-2.494     c0.353-0.217,1.377-0.326,3.072-0.326h3.074h3.18h3.074h6.605h2.016v-1.301h-2.016h-6.605h-3.074     c-6.008,0-9.293,0.181-9.855,0.542c-1.416,0.724-2.12,1.916-2.12,3.579c0,2.312,1.2,3.542,3.603,3.686     c6.078,0.435,11.199,2.459,15.371,6.073c5.863,5.205,8.797,11.532,8.797,18.978c0,5.277-1.502,10.049-4.506,14.313     c-3.004,4.266-6.979,7.265-11.924,9c-1.768,0.724-3.285,1.139-4.559,1.247c-1.272,0.108-4.416,0.163-9.434,0.163h-6.254h-4.875     h-4.771h-3.074v0.003h-8.264h-4.135h-4.24h-5.512h-5.512c-4.311-0.071-8.162-1.116-11.553-3.135     c-3.816-2.234-6.873-5.354-9.17-9.354c-2.297-4.001-3.443-8.164-3.443-12.488c0-7.569,3.037-13.949,9.115-19.14     c4.451-3.676,10.104-5.514,16.959-5.514h3.074h2.967h3.074h2.967h1.908v-1.298h-1.908h-2.967h-3.074h-3.922h-4.027     c-4.594,0.072-8.729,1.227-12.4,3.46c-3.957,2.379-7.119,5.605-9.486,9.678c-2.367,4.073-3.551,8.38-3.551,12.921     c0,0.667,0.053,1.317,0.104,1.968h-4.072c-0.986-0.07-1.693-0.396-2.117-0.976c-0.268-0.271-0.436-0.774-0.514-1.494v-1.507     V52.448c0-9.396-0.07-14.854-0.213-16.374c-0.496-5.565-2.369-10.409-5.617-14.53c-5.088-6.434-11.909-9.651-20.458-9.651     c-4.452,0-8.373,1.014-11.765,3.037l1.272,0.867c2.896-1.735,6.466-2.603,10.705-2.603c5.3,0,10.123,1.556,14.468,4.662     c4.344,3.109,7.331,7.195,8.958,12.254c0.705,2.099,1.112,4.066,1.219,5.91c0.104,1.843,0.16,7.319,0.16,16.428V66.22     l0.014,1.643c0.222,2.415,1.546,3.637,3.996,3.637h4.097c0.084,0.654,0.17,1.31,0.3,1.951h-4.82c-1.553,0-2.844-0.56-3.869-1.681     c-1-1.095-1.538-2.452-1.629-4.064h0.007v-1.378v-13.77l0.104-9.651c0-5.06-0.443-9.036-1.324-11.929     c-0.885-2.89-2.457-5.601-4.717-8.132c-4.523-5.061-10.213-7.591-17.066-7.591c-3.463,0-6.502,0.688-9.116,2.06l0.848,0.977     c2.756-1.155,8.374-1.735,8.374-1.735c4.097,0,7.95,1.157,11.553,3.47c3.604,2.315,6.29,5.386,8.057,9.217     c0.916,1.952,1.5,3.814,1.748,5.585c0.246,1.772,0.371,4.755,0.371,8.946l-0.105,8.784V66.33v1.268h-0.02     c0.07,2.097,0.742,3.813,2.014,5.151s2.861,2.006,4.771,2.006h5.104c0.16,0.623,0.357,1.234,0.566,1.843h-6.096     c-1.129,0-2.35-0.361-3.656-1.084c-1.309-0.722-2.279-1.554-2.916-2.494c-1.061-1.662-1.623-3.47-1.695-5.422h-0.018v-1.375     l0.105-23.531c0-4.481-0.354-7.897-1.062-10.248c-0.707-2.348-2.049-4.679-4.025-6.994c-4.099-4.771-9.046-7.156-14.839-7.156     c-2.544,0-4.913,0.434-7.102,1.301l0.848,1.192c1.908-0.722,3.922-1.084,6.042-1.084c3.603,0,6.942,0.994,10.016,2.982     c3.074,1.989,5.422,4.646,7.051,7.97c0.774,1.664,1.271,3.253,1.481,4.771c0.211,1.519,0.317,4.229,0.317,8.133v3.579L167,52.448     V66.22l0.133,2.241c0.32,2.757,1.213,4.982,2.746,6.615c1.696,1.809,3.922,2.711,6.68,2.711h6.558     c0.282,0.699,0.62,1.382,0.966,2.061h-8.055c-2.822,0-5.279-1.174-7.365-3.524c-2.083-2.348-3.23-5.259-3.445-8.729l-0.052-1.375     V52.448c0-9.108-0.036-14.205-0.104-15.29c-0.283-3.396-1.345-6.396-3.182-9c-3.179-4.408-7.737-6.614-13.673-6.614     c-1.343,0-2.967,0.182-4.875,0.542l0.636,1.302c1.412-0.288,2.79-0.435,4.133-0.435c3.745,0,6.943,0.977,9.593,2.929     c2.65,1.952,4.468,4.663,5.458,8.133c0.353,1.229,0.565,2.621,0.636,4.175c0.07,1.555,0.106,6.309,0.106,14.259v13.772     l0.13,2.241c0.342,3.516,1.563,6.468,3.686,8.839c2.297,2.566,5.068,3.85,8.318,3.85h8.768c0.357,0.62,0.713,1.241,1.129,1.843     h-9.683c-3.888,0-7.155-1.444-9.806-4.337c-2.648-2.891-4.081-6.578-4.292-11.061h-0.017v-1.375V52.448l0.106-9.759     c0-3.975-0.231-6.832-0.689-8.566c-0.461-1.735-1.396-3.397-2.809-4.988c-2.615-2.892-6.078-4.338-10.387-4.338     c-1.06,0-2.157,0.072-3.286,0.217l0.53,1.301c0.424-0.071,1.272-0.107,2.544-0.107h0.53c3.532,0,6.465,1.192,8.797,3.578     c1.484,1.447,2.438,3,2.862,4.662c0.424,1.664,0.636,4.701,0.636,9.109v3.579l-0.106,5.312V66.22l0.112,2.241     c0.303,3.387,1.206,6.364,2.767,8.893c1.343,2.098,3.165,3.779,5.458,5.043c2.297,1.265,4.646,1.897,7.05,1.897h10.647     c0.164,0.212,0.303,0.432,0.477,0.641c0.373,0.454,0.755,0.891,1.146,1.311h-12.378c-4.663,0-8.618-1.752-11.871-5.259     c-3.126-3.372-4.865-7.64-5.246-12.785v-1.981V52.448l0.106-9.759c0-3.541-0.159-6.019-0.477-7.428     c-0.318-1.41-1.007-2.729-2.067-3.958c-2.051-2.313-4.629-3.47-7.738-3.47c-0.424,0-1.166,0.072-2.226,0.216l0.424,1.302     c0.212,0,0.494-0.036,0.848-0.109h0.212h0.212h0.212c2.332,0,4.381,0.725,6.148,2.169l2.65,3.904     c0.352,1.374,0.53,4.121,0.53,8.241v3.579l-0.106,5.312v13.772v1.375c0,0-0.015,0.361,0,0.545l0.031,0.321     c0.49,5.322,2.374,9.794,5.692,13.394c3.498,3.795,7.72,5.693,12.666,5.693h13.673c0.791,0.746,1.612,1.435,2.469,2.06h-16.353     c-2.474,0-5.123-0.722-7.95-2.169c-2.824-1.445-5.157-3.253-6.995-5.422c-3.18-3.758-4.417-8.024-4.629-13.88l0.204-3.106     l-0.012-1.735h0.029v-3.471V56.97v-4.735c0-8.385-0.072-13.373-0.213-14.964c-0.142-1.59-0.601-2.891-1.377-3.904     c-1.484-1.734-3.286-2.602-5.406-2.602c-0.779,0-1.309,0.037-1.59,0.108l0.318,1.301c0.212-0.071,0.636-0.108,1.272-0.108h0.106     c0.705,0,1.731,0.362,3.074,1.084l0.106,0.109c0.917,0.506,1.59,1.338,2.014,2.494c0.281,0.866,0.423,6.361,0.423,16.481v4.735     v1.751h-0.058l0.042,6.311l-0.149,4.011c0.302,5.259,1.49,9.325,4.362,13.085c1.979,2.53,4.504,4.627,7.578,6.289     c3.072,1.663,5.988,2.493,8.744,2.493h18.424c1.324,0.785,2.725,1.432,4.188,1.952H175.71c-3.108,0-6.254-0.867-9.435-2.602     c-3.179-1.735-5.829-4.048-7.948-6.94c-3.321-4.338-4.956-9.579-5.168-15.724l0.107-2.564l-0.012-1.735h0.029v-3.471V56.97     v-4.735l0.106-9.868c0-3.18-0.212-5.275-0.636-6.289c-0.424-1.012-1.343-1.661-2.756-1.951c-0.707,0-1.203,0.036-1.484,0.108     l0.212,1.301c0.141-0.07,0.459-0.108,0.954-0.108h0.106h0.212c0.353,0,0.705,0.146,1.06,0.434     c0.564,0.579,0.883,1.447,0.954,2.604v6.613v4.339v6.071v1.482v1.751h-0.059l0.042,6.311l-0.09,4.011     c0.754,7.402,3.197,13.296,7.377,17.639c2.12,2.242,4.7,4.05,7.736,5.422c3.039,1.374,5.937,2.06,8.69,2.06h28.549     c1.839,0.156,4.485,0.234,7.962,0.234h5.512h4.24h4.135h8.264h0.568h2.506h4.771h4.875h6.255c3.984,0,6.678-0.051,8.108-0.154     c-0.149,0.017-0.294,0.054-0.444,0.066c-0.259,0.034-0.623,0.062-1.072,0.088l35.383,0.019c0.779,0.072,1.31,0.254,1.591,0.542     c0.565,0.434,0.885,1.156,0.952,2.169v21.375l-0.094,6.76v21.375c-0.068,1.012-0.388,1.734-0.953,2.17     c-0.281,0.287-0.812,0.469-1.59,0.541l-64.4,0.055v1.302l64.4-0.056c2.543-0.145,3.815-1.518,3.815-4.119v-21.268l0.095-6.76     V97.233c0-2.552-1.232-3.914-3.679-4.103l-27.97-0.034c1.506-0.49,2.959-1.147,4.367-1.944l23.465,0.009     c1.625,0.073,2.984,0.635,4.08,1.682c1.097,1.049,1.644,2.368,1.644,3.958v21.7l-0.095,6.761v21.699     c0,1.59-0.547,2.908-1.645,3.958c-1.095,1.047-2.453,1.606-4.08,1.681l-64.4-0.054v1.302l64.4,0.053     c2.051-0.071,3.729-0.758,5.034-2.06c1.308-1.301,1.962-2.929,1.962-4.88v-21.699l0.094-6.761v-21.7     c0-1.952-0.651-3.579-1.961-4.88c-1.275-1.271-2.912-1.945-4.896-2.045l-21.521-0.024c0.635-0.443,1.265-0.909,1.879-1.419     c0.189-0.162,0.355-0.346,0.543-0.513h19.072c1.863,0.091,3.598,0.659,5.188,1.724c0.919,0.65,1.731,1.645,2.438,2.982     c0.707,1.338,1.061,2.585,1.061,3.74v22.135l-0.094,6.761v22.133c0,1.156-0.354,2.403-1.062,3.742     c-0.707,1.336-1.521,2.332-2.438,2.98c-1.625,1.085-3.393,1.662-5.301,1.734l-64.4,0.035v1.301l64.4-0.033     c3.109-0.217,5.549-1.192,7.313-2.928c1.767-1.735,2.649-4.015,2.649-6.832V125.26l0.094-6.76V96.366     c0-2.819-0.883-5.097-2.648-6.832c-1.722-1.69-4.092-2.647-7.092-2.896v-0.02h-17.812c0.555-0.577,1.067-1.19,1.563-1.817     l16.164-0.021c3.327,0.241,6.131,1.404,8.396,3.505c2.297,2.134,3.444,4.646,3.444,7.537V118.5l-0.097,6.762v22.676     c0,2.891-1.146,5.401-3.442,7.537c-2.297,2.131-5.142,3.307-8.532,3.522l-64.402-0.022v1.301l64.402,0.022     c3.815-0.217,6.979-1.501,9.485-3.851c2.511-2.35,3.763-5.188,3.763-8.514V125.26l0.096-6.76V95.824     c0-3.324-1.254-6.163-3.764-8.513c-2.507-2.348-5.671-3.632-9.486-3.849l-15.072,0.036c0.421-0.605,0.826-1.22,1.197-1.866     h14.037c4.309,0.246,7.858,1.701,10.649,4.378c2.826,2.711,4.239,6.056,4.239,10.03v22.46l-0.096,6.76v22.459     c0,3.975-1.412,7.32-4.24,10.031c-2.823,2.711-6.428,4.175-10.812,4.393l-64.399-0.02v1.301l64.399,0.02     c3.677-0.217,6.854-1.191,9.539-2.928c2.052-1.375,3.692-3.236,4.931-5.584c1.235-2.351,1.854-4.756,1.854-7.213V125.26     l0.096-6.76V96.04c0-2.456-0.617-4.86-1.854-7.21s-2.881-4.212-4.93-5.586c-2.557-1.651-5.572-2.593-9.025-2.868l-13.705-0.045     c0.15-0.304,0.326-0.589,0.472-0.9c0.63-1.371,1.099-2.771,1.483-4.185h11.357v-0.018c5.668,0.238,10.328,1.967,13.977,5.196     c2.119,1.881,3.888,4.267,5.299,7.157c1.416,2.893,2.121,5.604,2.121,8.133v22.785l-0.096,6.76v22.785     c0,2.528-0.705,5.239-2.119,8.132c-1.412,2.891-3.182,5.276-5.301,7.158c-3.674,3.253-8.373,4.986-14.098,5.205l-64.4,0.018     v1.301l64.4-0.018c5.582-0.217,10.318-1.881,14.203-4.988c2.475-2.023,4.521-4.607,6.146-7.754     c1.627-3.144,2.438-6.125,2.438-8.945V125.26l0.095-6.761V95.607c0-2.819-0.812-5.802-2.438-8.946     c-1.625-3.145-3.675-5.729-6.147-7.754c-3.885-3.104-8.621-4.771-14.203-4.987l-10.883,0.024     c0.114-0.528,0.182-1.066,0.264-1.602h11.091v-0.017c5.801,0.293,10.771,2.082,14.897,5.389c2.828,2.169,5.088,4.88,6.783,8.133     c1.696,3.253,2.545,6.471,2.545,9.652V118.5l-0.095,6.76v23.002c0,3.18-0.849,6.396-2.545,9.65     c-1.694,3.254-3.957,5.965-6.783,8.133c-4.239,3.396-9.362,5.205-15.368,5.422l-64.402-0.025v1.303l64.402,0.025     c7.914-0.58,14.133-3.146,18.653-7.701c2.19-2.168,3.959-4.807,5.302-7.916c1.342-3.106,2.012-6.069,2.012-8.891V125.26     L321.285,118.501z"
           id="path15" /></g></g></g></svg>